info face="exo-medium" size=28 bold=0 italic=0 charset="" unicode=1 stretchH=100 smooth=1 aa=2 padding=0,0,0,0 spacing=0,0
common lineHeight=32 base=23 scaleW=1 scaleH=1 pages=1 packed=0 alphaChnl=0 redChnl=0 greenChnl=0 blueChnl=0
page id=0 file="28_exo-medium/exo-medium.png"
chars count=193
char id=0    x=15   y=2    width=11   height=10   xoffset=2    yoffset=13   xadvance=17   page=0    chnl=0
char id=32   x=0    y=0    width=17   height=0    xoffset=0    yoffset=0    xadvance=17   page=0    chnl=0
char id=33   x=7    y=204  width=3    height=18   xoffset=7    yoffset=5    xadvance=17   page=0    chnl=0
char id=34   x=71   y=2    width=9    height=9    xoffset=4    yoffset=3    xadvance=17   page=0    chnl=0
char id=35   x=61   y=244  width=15   height=18   xoffset=1    yoffset=5    xadvance=17   page=0    chnl=0
char id=36   x=293  y=14   width=16   height=22   xoffset=1    yoffset=3    xadvance=17   page=0    chnl=0
char id=37   x=96   y=64   width=17   height=18   xoffset=0    yoffset=5    xadvance=17   page=0    chnl=0
char id=38   x=78   y=64   width=16   height=18   xoffset=1    yoffset=5    xadvance=17   page=0    chnl=0
char id=39   x=57   y=2    width=3    height=9    xoffset=7    yoffset=3    xadvance=17   page=0    chnl=0
char id=40   x=2    y=42   width=8    height=26   xoffset=5    yoffset=3    xadvance=17   page=0    chnl=0
char id=41   x=2    y=70   width=8    height=26   xoffset=5    yoffset=3    xadvance=17   page=0    chnl=0
char id=42   x=28   y=2    width=11   height=10   xoffset=3    yoffset=3    xadvance=17   page=0    chnl=0
char id=43   x=279  y=64   width=14   height=14   xoffset=2    yoffset=7    xadvance=17   page=0    chnl=0
char id=44   x=62   y=2    width=7    height=9    xoffset=3    yoffset=19   xadvance=17   page=0    chnl=0
char id=45   x=148  y=2    width=8    height=2    xoffset=5    yoffset=15   xadvance=17   page=0    chnl=0
char id=46   x=116  y=8    width=3    height=4    xoffset=7    yoffset=19   xadvance=17   page=0    chnl=0
char id=47   x=44   y=130  width=15   height=20   xoffset=1    yoffset=3    xadvance=17   page=0    chnl=0
char id=48   x=61   y=284  width=14   height=18   xoffset=2    yoffset=5    xadvance=17   page=0    chnl=0
char id=49   x=61   y=84   width=13   height=18   xoffset=2    yoffset=5    xadvance=17   page=0    chnl=0
char id=50   x=61   y=104  width=13   height=18   xoffset=2    yoffset=5    xadvance=17   page=0    chnl=0
char id=51   x=61   y=124  width=14   height=18   xoffset=1    yoffset=5    xadvance=17   page=0    chnl=0
char id=52   x=61   y=144  width=14   height=18   xoffset=1    yoffset=5    xadvance=17   page=0    chnl=0
char id=53   x=61   y=164  width=14   height=18   xoffset=2    yoffset=5    xadvance=17   page=0    chnl=0
char id=54   x=61   y=184  width=13   height=18   xoffset=2    yoffset=5    xadvance=17   page=0    chnl=0
char id=55   x=61   y=204  width=12   height=18   xoffset=2    yoffset=5    xadvance=17   page=0    chnl=0
char id=56   x=61   y=224  width=13   height=18   xoffset=2    yoffset=5    xadvance=17   page=0    chnl=0
char id=57   x=61   y=264  width=13   height=18   xoffset=2    yoffset=5    xadvance=17   page=0    chnl=0
char id=58   x=2    y=225  width=3    height=15   xoffset=7    yoffset=8    xadvance=17   page=0    chnl=0
char id=59   x=2    y=182  width=6    height=20   xoffset=5    yoffset=8    xadvance=17   page=0    chnl=0
char id=60   x=61   y=431  width=14   height=15   xoffset=2    yoffset=6    xadvance=17   page=0    chnl=0
char id=61   x=41   y=2    width=14   height=9    xoffset=2    yoffset=9    xadvance=17   page=0    chnl=0
char id=62   x=61   y=414  width=14   height=15   xoffset=2    yoffset=6    xadvance=17   page=0    chnl=0
char id=63   x=61   y=324  width=14   height=18   xoffset=1    yoffset=5    xadvance=17   page=0    chnl=0
char id=64   x=81   y=14   width=16   height=24   xoffset=1    yoffset=3    xadvance=17   page=0    chnl=0
char id=65   x=175  y=42   width=17   height=18   xoffset=0    yoffset=5    xadvance=17   page=0    chnl=0
char id=66   x=44   y=302  width=14   height=18   xoffset=2    yoffset=5    xadvance=17   page=0    chnl=0
char id=67   x=44   y=322  width=14   height=18   xoffset=2    yoffset=5    xadvance=17   page=0    chnl=0
char id=68   x=44   y=342  width=13   height=18   xoffset=2    yoffset=5    xadvance=17   page=0    chnl=0
char id=69   x=44   y=362  width=13   height=18   xoffset=2    yoffset=5    xadvance=17   page=0    chnl=0
char id=70   x=44   y=382  width=12   height=18   xoffset=3    yoffset=5    xadvance=17   page=0    chnl=0
char id=71   x=44   y=402  width=14   height=18   xoffset=2    yoffset=5    xadvance=17   page=0    chnl=0
char id=72   x=44   y=422  width=13   height=18   xoffset=2    yoffset=5    xadvance=17   page=0    chnl=0
char id=73   x=497  y=14   width=11   height=18   xoffset=3    yoffset=5    xadvance=17   page=0    chnl=0
char id=74   x=44   y=442  width=12   height=18   xoffset=2    yoffset=5    xadvance=17   page=0    chnl=0
char id=75   x=44   y=462  width=15   height=18   xoffset=2    yoffset=5    xadvance=17   page=0    chnl=0
char id=76   x=44   y=482  width=12   height=18   xoffset=3    yoffset=5    xadvance=17   page=0    chnl=0
char id=77   x=212  y=42   width=14   height=18   xoffset=2    yoffset=5    xadvance=17   page=0    chnl=0
char id=78   x=228  y=42   width=13   height=18   xoffset=2    yoffset=5    xadvance=17   page=0    chnl=0
char id=79   x=243  y=42   width=14   height=18   xoffset=1    yoffset=5    xadvance=17   page=0    chnl=0
char id=80   x=259  y=42   width=13   height=18   xoffset=2    yoffset=5    xadvance=17   page=0    chnl=0
char id=81   x=65   y=14   width=14   height=24   xoffset=1    yoffset=5    xadvance=17   page=0    chnl=0
char id=82   x=274  y=42   width=14   height=18   xoffset=2    yoffset=5    xadvance=17   page=0    chnl=0
char id=83   x=290  y=42   width=15   height=18   xoffset=1    yoffset=5    xadvance=17   page=0    chnl=0
char id=84   x=307  y=42   width=15   height=18   xoffset=1    yoffset=5    xadvance=17   page=0    chnl=0
char id=85   x=324  y=42   width=13   height=18   xoffset=2    yoffset=5    xadvance=17   page=0    chnl=0
char id=86   x=339  y=42   width=17   height=18   xoffset=0    yoffset=5    xadvance=17   page=0    chnl=0
char id=87   x=358  y=42   width=17   height=18   xoffset=0    yoffset=5    xadvance=17   page=0    chnl=0
char id=88   x=377  y=42   width=17   height=18   xoffset=0    yoffset=5    xadvance=17   page=0    chnl=0
char id=89   x=396  y=42   width=17   height=18   xoffset=0    yoffset=5    xadvance=17   page=0    chnl=0
char id=90   x=415  y=42   width=15   height=18   xoffset=1    yoffset=5    xadvance=17   page=0    chnl=0
char id=91   x=2    y=98   width=8    height=26   xoffset=6    yoffset=3    xadvance=17   page=0    chnl=0
char id=92   x=44   y=152  width=15   height=20   xoffset=1    yoffset=3    xadvance=17   page=0    chnl=0
char id=93   x=2    y=126  width=8    height=26   xoffset=4    yoffset=3    xadvance=17   page=0    chnl=0
char id=94   x=326  y=64   width=14   height=13   xoffset=1    yoffset=4    xadvance=17   page=0    chnl=0
char id=95   x=158  y=6    width=17   height=2    xoffset=0    yoffset=24   xadvance=17   page=0    chnl=0
char id=96   x=116  y=2    width=6    height=4    xoffset=5    yoffset=3    xadvance=17   page=0    chnl=0
char id=97   x=61   y=363  width=15   height=15   xoffset=2    yoffset=8    xadvance=17   page=0    chnl=0
char id=98   x=29   y=64   width=13   height=20   xoffset=2    yoffset=3    xadvance=17   page=0    chnl=0
char id=99   x=61   y=380  width=13   height=15   xoffset=2    yoffset=8    xadvance=17   page=0    chnl=0
char id=100  x=29   y=108  width=13   height=20   xoffset=2    yoffset=3    xadvance=17   page=0    chnl=0
char id=101  x=61   y=397  width=13   height=15   xoffset=2    yoffset=8    xadvance=17   page=0    chnl=0
char id=102  x=29   y=130  width=13   height=20   xoffset=2    yoffset=3    xadvance=17   page=0    chnl=0
char id=103  x=14   y=474  width=13   height=21   xoffset=2    yoffset=8    xadvance=17   page=0    chnl=0
char id=104  x=29   y=196  width=12   height=20   xoffset=3    yoffset=3    xadvance=17   page=0    chnl=0
char id=105  x=29   y=218  width=13   height=20   xoffset=2    yoffset=3    xadvance=17   page=0    chnl=0
char id=106  x=2    y=14   width=10   height=26   xoffset=2    yoffset=3    xadvance=17   page=0    chnl=0
char id=107  x=29   y=262  width=13   height=20   xoffset=3    yoffset=3    xadvance=17   page=0    chnl=0
char id=108  x=29   y=284  width=13   height=20   xoffset=2    yoffset=3    xadvance=17   page=0    chnl=0
char id=109  x=61   y=448  width=15   height=15   xoffset=0    yoffset=8    xadvance=17   page=0    chnl=0
char id=110  x=61   y=482  width=13   height=15   xoffset=1    yoffset=8    xadvance=17   page=0    chnl=0
char id=111  x=134  y=64   width=13   height=15   xoffset=2    yoffset=8    xadvance=17   page=0    chnl=0
char id=112  x=351  y=14   width=14   height=21   xoffset=1    yoffset=8    xadvance=17   page=0    chnl=0
char id=113  x=367  y=14   width=13   height=21   xoffset=2    yoffset=8    xadvance=17   page=0    chnl=0
char id=114  x=149  y=64   width=12   height=15   xoffset=3    yoffset=8    xadvance=17   page=0    chnl=0
char id=115  x=163  y=64   width=13   height=15   xoffset=2    yoffset=8    xadvance=17   page=0    chnl=0
char id=116  x=485  y=42   width=12   height=18   xoffset=3    yoffset=5    xadvance=17   page=0    chnl=0
char id=117  x=178  y=64   width=13   height=15   xoffset=3    yoffset=8    xadvance=17   page=0    chnl=0
char id=118  x=193  y=64   width=16   height=15   xoffset=0    yoffset=8    xadvance=17   page=0    chnl=0
char id=119  x=211  y=64   width=18   height=15   xoffset=-1   yoffset=8    xadvance=17   page=0    chnl=0
char id=120  x=231  y=64   width=15   height=15   xoffset=1    yoffset=8    xadvance=17   page=0    chnl=0
char id=121  x=398  y=14   width=16   height=21   xoffset=0    yoffset=8    xadvance=17   page=0    chnl=0
char id=122  x=248  y=64   width=13   height=15   xoffset=2    yoffset=8    xadvance=17   page=0    chnl=0
char id=123  x=14   y=42   width=12   height=26   xoffset=3    yoffset=3    xadvance=17   page=0    chnl=0
char id=124  x=2    y=154  width=3    height=26   xoffset=7    yoffset=3    xadvance=17   page=0    chnl=0
char id=125  x=14   y=70   width=12   height=26   xoffset=2    yoffset=3    xadvance=17   page=0    chnl=0
char id=126  x=132  y=2    width=14   height=3    xoffset=1    yoffset=12   xadvance=17   page=0    chnl=0
char id=160  x=82   y=12   width=0    height=0    xoffset=0    yoffset=23   xadvance=17   page=0    chnl=0
char id=161  x=2    y=204  width=3    height=19   xoffset=7    yoffset=8    xadvance=17   page=0    chnl=0
char id=162  x=44   y=281  width=14   height=19   xoffset=2    yoffset=5    xadvance=17   page=0    chnl=0
char id=163  x=194  y=42   width=16   height=18   xoffset=1    yoffset=5    xadvance=17   page=0    chnl=0
char id=164  x=263  y=64   width=14   height=14   xoffset=1    yoffset=7    xadvance=17   page=0    chnl=0
char id=165  x=451  y=42   width=17   height=18   xoffset=0    yoffset=5    xadvance=17   page=0    chnl=0
char id=166  x=7    y=154  width=3    height=26   xoffset=7    yoffset=3    xadvance=17   page=0    chnl=0
char id=167  x=14   y=176  width=13   height=23   xoffset=2    yoffset=3    xadvance=17   page=0    chnl=0
char id=168  x=132  y=7    width=8    height=3    xoffset=5    yoffset=3    xadvance=17   page=0    chnl=0
char id=169  x=98   y=42   width=17   height=20   xoffset=0    yoffset=2    xadvance=17   page=0    chnl=0
char id=170  x=14   y=497  width=11   height=11   xoffset=3    yoffset=4    xadvance=17   page=0    chnl=0
char id=171  x=342  y=64   width=14   height=11   xoffset=2    yoffset=10   xadvance=17   page=0    chnl=0
char id=172  x=92   y=2    width=15   height=8    xoffset=1    yoffset=13   xadvance=17   page=0    chnl=0
char id=173  x=148  y=6    width=8    height=2    xoffset=5    yoffset=15   xadvance=17   page=0    chnl=0
char id=174  x=79   y=42   width=17   height=20   xoffset=0    yoffset=2    xadvance=17   page=0    chnl=0
char id=175  x=158  y=2    width=17   height=2    xoffset=0    yoffset=0    xadvance=17   page=0    chnl=0
char id=176  x=82   y=2    width=8    height=8    xoffset=4    yoffset=4    xadvance=17   page=0    chnl=0
char id=177  x=61   y=344  width=14   height=17   xoffset=2    yoffset=6    xadvance=17   page=0    chnl=0
char id=178  x=2    y=242  width=9    height=11   xoffset=4    yoffset=4    xadvance=17   page=0    chnl=0
char id=179  x=2    y=255  width=9    height=11   xoffset=3    yoffset=4    xadvance=17   page=0    chnl=0
char id=180  x=124  y=2    width=6    height=4    xoffset=5    yoffset=3    xadvance=17   page=0    chnl=0
char id=181  x=416  y=14   width=14   height=21   xoffset=2    yoffset=8    xadvance=17   page=0    chnl=0
char id=182  x=14   y=201  width=13   height=23   xoffset=2    yoffset=5    xadvance=17   page=0    chnl=0
char id=183  x=124  y=8    width=3    height=4    xoffset=7    yoffset=13   xadvance=17   page=0    chnl=0
char id=184  x=109  y=2    width=5    height=6    xoffset=2    yoffset=23   xadvance=17   page=0    chnl=0
char id=185  x=2    y=268  width=10   height=11   xoffset=3    yoffset=4    xadvance=17   page=0    chnl=0
char id=186  x=374  y=64   width=11   height=11   xoffset=3    yoffset=4    xadvance=17   page=0    chnl=0
char id=187  x=358  y=64   width=14   height=11   xoffset=1    yoffset=10   xadvance=17   page=0    chnl=0
char id=188  x=156  y=42   width=17   height=19   xoffset=0    yoffset=5    xadvance=17   page=0    chnl=0
char id=189  x=137  y=42   width=17   height=19   xoffset=0    yoffset=4    xadvance=17   page=0    chnl=0
char id=190  x=117  y=42   width=18   height=19   xoffset=-1   yoffset=5    xadvance=17   page=0    chnl=0
char id=191  x=44   y=239  width=14   height=19   xoffset=2    yoffset=8    xadvance=17   page=0    chnl=0
char id=192  x=164  y=14   width=18   height=23   xoffset=-1   yoffset=0    xadvance=17   page=0    chnl=0
char id=193  x=184  y=14   width=18   height=23   xoffset=0    yoffset=0    xadvance=17   page=0    chnl=0
char id=194  x=204  y=14   width=17   height=23   xoffset=0    yoffset=0    xadvance=17   page=0    chnl=0
char id=195  x=223  y=14   width=17   height=23   xoffset=0    yoffset=0    xadvance=17   page=0    chnl=0
char id=196  x=311  y=14   width=18   height=22   xoffset=0    yoffset=1    xadvance=17   page=0    chnl=0
char id=197  x=331  y=14   width=18   height=22   xoffset=-1   yoffset=1    xadvance=17   page=0    chnl=0
char id=198  x=432  y=42   width=17   height=18   xoffset=0    yoffset=5    xadvance=17   page=0    chnl=0
char id=199  x=99   y=14   width=15   height=24   xoffset=2    yoffset=5    xadvance=17   page=0    chnl=0
char id=200  x=14   y=226  width=13   height=23   xoffset=2    yoffset=0    xadvance=17   page=0    chnl=0
char id=201  x=14   y=251  width=13   height=23   xoffset=2    yoffset=0    xadvance=17   page=0    chnl=0
char id=202  x=14   y=276  width=13   height=23   xoffset=2    yoffset=0    xadvance=17   page=0    chnl=0
char id=203  x=14   y=426  width=13   height=22   xoffset=2    yoffset=1    xadvance=17   page=0    chnl=0
char id=204  x=14   y=301  width=11   height=23   xoffset=3    yoffset=0    xadvance=17   page=0    chnl=0
char id=205  x=14   y=326  width=11   height=23   xoffset=3    yoffset=0    xadvance=17   page=0    chnl=0
char id=206  x=14   y=351  width=11   height=23   xoffset=3    yoffset=0    xadvance=17   page=0    chnl=0
char id=207  x=14   y=450  width=11   height=22   xoffset=3    yoffset=1    xadvance=17   page=0    chnl=0
char id=208  x=61   y=64   width=15   height=18   xoffset=1    yoffset=5    xadvance=17   page=0    chnl=0
char id=209  x=14   y=376  width=13   height=23   xoffset=2    yoffset=0    xadvance=17   page=0    chnl=0
char id=210  x=116  y=14   width=14   height=24   xoffset=1    yoffset=-1   xadvance=17   page=0    chnl=0
char id=211  x=132  y=14   width=14   height=24   xoffset=1    yoffset=-1   xadvance=17   page=0    chnl=0
char id=212  x=148  y=14   width=14   height=24   xoffset=1    yoffset=-1   xadvance=17   page=0    chnl=0
char id=213  x=242  y=14   width=14   height=23   xoffset=1    yoffset=0    xadvance=17   page=0    chnl=0
char id=214  x=277  y=14   width=14   height=23   xoffset=1    yoffset=0    xadvance=17   page=0    chnl=0
char id=215  x=295  y=64   width=13   height=13   xoffset=2    yoffset=7    xadvance=17   page=0    chnl=0
char id=216  x=61   y=42   width=16   height=20   xoffset=0    yoffset=4    xadvance=17   page=0    chnl=0
char id=217  x=14   y=98   width=13   height=24   xoffset=2    yoffset=-1   xadvance=17   page=0    chnl=0
char id=218  x=14   y=124  width=13   height=24   xoffset=2    yoffset=-1   xadvance=17   page=0    chnl=0
char id=219  x=14   y=150  width=13   height=24   xoffset=2    yoffset=-1   xadvance=17   page=0    chnl=0
char id=220  x=14   y=401  width=13   height=23   xoffset=2    yoffset=0    xadvance=17   page=0    chnl=0
char id=221  x=258  y=14   width=17   height=23   xoffset=0    yoffset=0    xadvance=17   page=0    chnl=0
char id=222  x=470  y=42   width=13   height=18   xoffset=2    yoffset=5    xadvance=17   page=0    chnl=0
char id=223  x=44   y=108  width=14   height=20   xoffset=2    yoffset=3    xadvance=17   page=0    chnl=0
char id=224  x=44   y=86   width=15   height=20   xoffset=2    yoffset=3    xadvance=17   page=0    chnl=0
char id=225  x=480  y=14   width=15   height=20   xoffset=2    yoffset=3    xadvance=17   page=0    chnl=0
char id=226  x=44   y=42   width=15   height=20   xoffset=2    yoffset=3    xadvance=17   page=0    chnl=0
char id=227  x=44   y=64   width=15   height=20   xoffset=2    yoffset=3    xadvance=17   page=0    chnl=0
char id=228  x=44   y=218  width=15   height=19   xoffset=2    yoffset=4    xadvance=17   page=0    chnl=0
char id=229  x=448  y=14   width=15   height=21   xoffset=2    yoffset=2    xadvance=17   page=0    chnl=0
char id=230  x=115  y=64   width=17   height=15   xoffset=1    yoffset=8    xadvance=17   page=0    chnl=0
char id=231  x=432  y=14   width=14   height=21   xoffset=2    yoffset=8    xadvance=17   page=0    chnl=0
char id=232  x=29   y=174  width=13   height=20   xoffset=2    yoffset=3    xadvance=17   page=0    chnl=0
char id=233  x=29   y=372  width=13   height=20   xoffset=2    yoffset=3    xadvance=17   page=0    chnl=0
char id=234  x=44   y=196  width=13   height=20   xoffset=2    yoffset=3    xadvance=17   page=0    chnl=0
char id=235  x=29   y=394  width=13   height=20   xoffset=2    yoffset=3    xadvance=17   page=0    chnl=0
char id=236  x=29   y=42   width=13   height=20   xoffset=2    yoffset=3    xadvance=17   page=0    chnl=0
char id=237  x=29   y=482  width=13   height=20   xoffset=2    yoffset=3    xadvance=17   page=0    chnl=0
char id=238  x=29   y=152  width=13   height=20   xoffset=2    yoffset=3    xadvance=17   page=0    chnl=0
char id=239  x=44   y=260  width=13   height=19   xoffset=2    yoffset=4    xadvance=17   page=0    chnl=0
char id=240  x=382  y=14   width=14   height=21   xoffset=2    yoffset=2    xadvance=17   page=0    chnl=0
char id=241  x=29   y=86   width=13   height=20   xoffset=1    yoffset=3    xadvance=17   page=0    chnl=0
char id=242  x=29   y=460  width=13   height=20   xoffset=2    yoffset=3    xadvance=17   page=0    chnl=0
char id=243  x=465  y=14   width=13   height=20   xoffset=2    yoffset=3    xadvance=17   page=0    chnl=0
char id=244  x=29   y=240  width=13   height=20   xoffset=2    yoffset=3    xadvance=17   page=0    chnl=0
char id=245  x=44   y=174  width=13   height=20   xoffset=2    yoffset=3    xadvance=17   page=0    chnl=0
char id=246  x=29   y=438  width=13   height=20   xoffset=2    yoffset=3    xadvance=17   page=0    chnl=0
char id=247  x=310  y=64   width=14   height=13   xoffset=2    yoffset=7    xadvance=17   page=0    chnl=0
char id=248  x=61   y=465  width=14   height=15   xoffset=1    yoffset=8    xadvance=17   page=0    chnl=0
char id=249  x=29   y=416  width=13   height=20   xoffset=3    yoffset=3    xadvance=17   page=0    chnl=0
char id=250  x=29   y=350  width=13   height=20   xoffset=3    yoffset=3    xadvance=17   page=0    chnl=0
char id=251  x=29   y=328  width=13   height=20   xoffset=3    yoffset=3    xadvance=17   page=0    chnl=0
char id=252  x=29   y=306  width=13   height=20   xoffset=3    yoffset=3    xadvance=17   page=0    chnl=0
char id=253  x=29   y=14   width=16   height=26   xoffset=0    yoffset=3    xadvance=17   page=0    chnl=0
char id=254  x=14   y=14   width=13   height=26   xoffset=3    yoffset=3    xadvance=17   page=0    chnl=0
char id=255  x=47   y=14   width=16   height=25   xoffset=1    yoffset=4    xadvance=17   page=0    chnl=0
char id=8364 x=61   y=304  width=15   height=18   xoffset=1    yoffset=5    xadvance=17   page=0    chnl=0
kernings count=0
