info face="exo-medium" size=32 bold=0 italic=0 charset="" unicode=1 stretchH=100 smooth=1 aa=2 padding=0,0,0,0 spacing=0,0
common lineHeight=36 base=27 scaleW=1 scaleH=1 pages=1 packed=0 alphaChnl=0 redChnl=0 greenChnl=0 blueChnl=0
page id=0 file="32_exo-medium/exo-medium.png"
chars count=193
char id=0    x=18   y=2    width=14   height=12   xoffset=1    yoffset=15   xadvance=19   page=0    chnl=0
char id=32   x=0    y=0    width=19   height=0    xoffset=0    yoffset=0    xadvance=19   page=0    chnl=0
char id=33   x=7    y=233  width=3    height=21   xoffset=8    yoffset=6    xadvance=19   page=0    chnl=0
char id=34   x=164  y=2    width=10   height=10   xoffset=5    yoffset=4    xadvance=19   page=0    chnl=0
char id=35   x=240  y=72   width=18   height=21   xoffset=1    yoffset=6    xadvance=19   page=0    chnl=0
char id=36   x=428  y=16   width=17   height=26   xoffset=1    yoffset=4    xadvance=19   page=0    chnl=0
char id=37   x=260  y=72   width=20   height=21   xoffset=0    yoffset=6    xadvance=19   page=0    chnl=0
char id=38   x=220  y=72   width=18   height=21   xoffset=1    yoffset=6    xadvance=19   page=0    chnl=0
char id=39   x=131  y=2    width=3    height=10   xoffset=8    yoffset=4    xadvance=19   page=0    chnl=0
char id=40   x=2    y=48   width=9    height=30   xoffset=5    yoffset=4    xadvance=19   page=0    chnl=0
char id=41   x=2    y=80   width=9    height=30   xoffset=5    yoffset=4    xadvance=19   page=0    chnl=0
char id=42   x=34   y=2    width=12   height=12   xoffset=4    yoffset=4    xadvance=19   page=0    chnl=0
char id=43   x=91   y=224  width=16   height=15   xoffset=2    yoffset=9    xadvance=19   page=0    chnl=0
char id=44   x=136  y=2    width=7    height=10   xoffset=4    yoffset=23   xadvance=19   page=0    chnl=0
char id=45   x=250  y=7    width=9    height=3    xoffset=5    yoffset=17   xadvance=19   page=0    chnl=0
char id=46   x=196  y=2    width=4    height=5    xoffset=8    yoffset=22   xadvance=19   page=0    chnl=0
char id=47   x=49   y=330  width=17   height=23   xoffset=1    yoffset=4    xadvance=19   page=0    chnl=0
char id=48   x=72   y=417  width=15   height=21   xoffset=2    yoffset=6    xadvance=19   page=0    chnl=0
char id=49   x=72   y=210  width=15   height=21   xoffset=2    yoffset=6    xadvance=19   page=0    chnl=0
char id=50   x=72   y=233  width=15   height=21   xoffset=2    yoffset=6    xadvance=19   page=0    chnl=0
char id=51   x=72   y=256  width=16   height=21   xoffset=2    yoffset=6    xadvance=19   page=0    chnl=0
char id=52   x=72   y=279  width=16   height=21   xoffset=2    yoffset=6    xadvance=19   page=0    chnl=0
char id=53   x=72   y=302  width=15   height=21   xoffset=2    yoffset=6    xadvance=19   page=0    chnl=0
char id=54   x=72   y=325  width=15   height=21   xoffset=2    yoffset=6    xadvance=19   page=0    chnl=0
char id=55   x=72   y=348  width=14   height=21   xoffset=2    yoffset=6    xadvance=19   page=0    chnl=0
char id=56   x=72   y=371  width=15   height=21   xoffset=2    yoffset=6    xadvance=19   page=0    chnl=0
char id=57   x=72   y=394  width=15   height=21   xoffset=2    yoffset=6    xadvance=19   page=0    chnl=0
char id=58   x=2    y=256  width=4    height=17   xoffset=8    yoffset=10   xadvance=19   page=0    chnl=0
char id=59   x=2    y=208  width=8    height=23   xoffset=5    yoffset=10   xadvance=19   page=0    chnl=0
char id=60   x=390  y=72   width=16   height=17   xoffset=2    yoffset=8    xadvance=19   page=0    chnl=0
char id=61   x=113  y=2    width=16   height=11   xoffset=2    yoffset=11   xadvance=19   page=0    chnl=0
char id=62   x=372  y=72   width=16   height=17   xoffset=2    yoffset=8    xadvance=19   page=0    chnl=0
char id=63   x=72   y=440  width=16   height=21   xoffset=1    yoffset=6    xadvance=19   page=0    chnl=0
char id=64   x=72   y=16   width=18   height=28   xoffset=1    yoffset=4    xadvance=19   page=0    chnl=0
char id=65   x=186  y=48   width=20   height=21   xoffset=0    yoffset=6    xadvance=19   page=0    chnl=0
char id=66   x=208  y=48   width=15   height=21   xoffset=3    yoffset=6    xadvance=19   page=0    chnl=0
char id=67   x=266  y=48   width=16   height=21   xoffset=2    yoffset=6    xadvance=19   page=0    chnl=0
char id=68   x=284  y=48   width=15   height=21   xoffset=3    yoffset=6    xadvance=19   page=0    chnl=0
char id=69   x=301  y=48   width=15   height=21   xoffset=3    yoffset=6    xadvance=19   page=0    chnl=0
char id=70   x=15   y=456  width=14   height=21   xoffset=3    yoffset=6    xadvance=19   page=0    chnl=0
char id=71   x=318  y=48   width=16   height=21   xoffset=2    yoffset=6    xadvance=19   page=0    chnl=0
char id=72   x=15   y=479  width=14   height=21   xoffset=3    yoffset=6    xadvance=19   page=0    chnl=0
char id=73   x=336  y=48   width=13   height=21   xoffset=3    yoffset=6    xadvance=19   page=0    chnl=0
char id=74   x=351  y=48   width=13   height=21   xoffset=3    yoffset=6    xadvance=19   page=0    chnl=0
char id=75   x=366  y=48   width=17   height=21   xoffset=3    yoffset=6    xadvance=19   page=0    chnl=0
char id=76   x=385  y=48   width=14   height=21   xoffset=4    yoffset=6    xadvance=19   page=0    chnl=0
char id=77   x=401  y=48   width=15   height=21   xoffset=2    yoffset=6    xadvance=19   page=0    chnl=0
char id=78   x=418  y=48   width=14   height=21   xoffset=3    yoffset=6    xadvance=19   page=0    chnl=0
char id=79   x=434  y=48   width=16   height=21   xoffset=2    yoffset=6    xadvance=19   page=0    chnl=0
char id=80   x=452  y=48   width=15   height=21   xoffset=3    yoffset=6    xadvance=19   page=0    chnl=0
char id=81   x=110  y=16   width=16   height=27   xoffset=2    yoffset=6    xadvance=19   page=0    chnl=0
char id=82   x=469  y=48   width=16   height=21   xoffset=3    yoffset=6    xadvance=19   page=0    chnl=0
char id=83   x=487  y=48   width=17   height=21   xoffset=0    yoffset=6    xadvance=19   page=0    chnl=0
char id=84   x=72   y=72   width=17   height=21   xoffset=1    yoffset=6    xadvance=19   page=0    chnl=0
char id=85   x=72   y=95   width=15   height=21   xoffset=2    yoffset=6    xadvance=19   page=0    chnl=0
char id=86   x=91   y=72   width=20   height=21   xoffset=0    yoffset=6    xadvance=19   page=0    chnl=0
char id=87   x=113  y=72   width=20   height=21   xoffset=0    yoffset=6    xadvance=19   page=0    chnl=0
char id=88   x=135  y=72   width=19   height=21   xoffset=0    yoffset=6    xadvance=19   page=0    chnl=0
char id=89   x=156  y=72   width=19   height=21   xoffset=0    yoffset=6    xadvance=19   page=0    chnl=0
char id=90   x=72   y=118  width=17   height=21   xoffset=1    yoffset=6    xadvance=19   page=0    chnl=0
char id=91   x=2    y=112  width=9    height=30   xoffset=6    yoffset=4    xadvance=19   page=0    chnl=0
char id=92   x=49   y=380  width=17   height=23   xoffset=1    yoffset=4    xadvance=19   page=0    chnl=0
char id=93   x=2    y=144  width=9    height=30   xoffset=4    yoffset=4    xadvance=19   page=0    chnl=0
char id=94   x=91   y=257  width=16   height=14   xoffset=2    yoffset=6    xadvance=19   page=0    chnl=0
char id=95   x=250  y=2    width=19   height=3    xoffset=0    yoffset=27   xadvance=19   page=0    chnl=0
char id=96   x=202  y=2    width=7    height=4    xoffset=6    yoffset=4    xadvance=19   page=0    chnl=0
char id=97   x=300  y=72   width=17   height=17   xoffset=2    yoffset=10   xadvance=19   page=0    chnl=0
char id=98   x=15   y=307  width=14   height=23   xoffset=3    yoffset=4    xadvance=19   page=0    chnl=0
char id=99   x=319  y=72   width=15   height=17   xoffset=2    yoffset=10   xadvance=19   page=0    chnl=0
char id=100  x=31   y=281  width=15   height=23   xoffset=2    yoffset=4    xadvance=19   page=0    chnl=0
char id=101  x=336  y=72   width=15   height=17   xoffset=2    yoffset=10   xadvance=19   page=0    chnl=0
char id=102  x=31   y=306  width=15   height=23   xoffset=2    yoffset=4    xadvance=19   page=0    chnl=0
char id=103  x=15   y=255  width=14   height=24   xoffset=2    yoffset=10   xadvance=19   page=0    chnl=0
char id=104  x=15   y=332  width=14   height=23   xoffset=3    yoffset=4    xadvance=19   page=0    chnl=0
char id=105  x=31   y=406  width=15   height=23   xoffset=2    yoffset=4    xadvance=19   page=0    chnl=0
char id=106  x=2    y=16   width=11   height=30   xoffset=2    yoffset=4    xadvance=19   page=0    chnl=0
char id=107  x=31   y=456  width=15   height=23   xoffset=4    yoffset=4    xadvance=19   page=0    chnl=0
char id=108  x=31   y=481  width=15   height=23   xoffset=2    yoffset=4    xadvance=19   page=0    chnl=0
char id=109  x=353  y=72   width=17   height=17   xoffset=1    yoffset=10   xadvance=19   page=0    chnl=0
char id=110  x=408  y=72   width=15   height=17   xoffset=2    yoffset=10   xadvance=19   page=0    chnl=0
char id=111  x=443  y=72   width=15   height=17   xoffset=2    yoffset=10   xadvance=19   page=0    chnl=0
char id=112  x=31   y=103  width=15   height=24   xoffset=2    yoffset=10   xadvance=19   page=0    chnl=0
char id=113  x=15   y=281  width=14   height=24   xoffset=2    yoffset=10   xadvance=19   page=0    chnl=0
char id=114  x=460  y=72   width=13   height=17   xoffset=4    yoffset=10   xadvance=19   page=0    chnl=0
char id=115  x=475  y=72   width=14   height=17   xoffset=2    yoffset=10   xadvance=19   page=0    chnl=0
char id=116  x=72   y=164  width=13   height=21   xoffset=3    yoffset=6    xadvance=19   page=0    chnl=0
char id=117  x=491  y=72   width=14   height=17   xoffset=3    yoffset=10   xadvance=19   page=0    chnl=0
char id=118  x=91   y=114  width=18   height=17   xoffset=1    yoffset=10   xadvance=19   page=0    chnl=0
char id=119  x=91   y=133  width=19   height=17   xoffset=0    yoffset=10   xadvance=19   page=0    chnl=0
char id=120  x=91   y=152  width=17   height=17   xoffset=1    yoffset=10   xadvance=19   page=0    chnl=0
char id=121  x=49   y=102  width=18   height=24   xoffset=1    yoffset=10   xadvance=19   page=0    chnl=0
char id=122  x=91   y=171  width=14   height=17   xoffset=2    yoffset=10   xadvance=19   page=0    chnl=0
char id=123  x=15   y=48   width=14   height=30   xoffset=3    yoffset=4    xadvance=19   page=0    chnl=0
char id=124  x=2    y=176  width=3    height=30   xoffset=8    yoffset=4    xadvance=19   page=0    chnl=0
char id=125  x=15   y=80   width=13   height=30   xoffset=3    yoffset=4    xadvance=19   page=0    chnl=0
char id=126  x=211  y=2    width=16   height=4    xoffset=2    yoffset=14   xadvance=19   page=0    chnl=0
char id=160  x=131  y=14   width=0    height=0    xoffset=0    yoffset=27   xadvance=19   page=0    chnl=0
char id=161  x=2    y=233  width=3    height=21   xoffset=8    yoffset=10   xadvance=19   page=0    chnl=0
char id=162  x=168  y=48   width=16   height=22   xoffset=2    yoffset=6    xadvance=19   page=0    chnl=0
char id=163  x=225  y=48   width=18   height=21   xoffset=1    yoffset=6    xadvance=19   page=0    chnl=0
char id=164  x=91   y=190  width=16   height=15   xoffset=2    yoffset=9    xadvance=19   page=0    chnl=0
char id=165  x=245  y=48   width=19   height=21   xoffset=0    yoffset=6    xadvance=19   page=0    chnl=0
char id=166  x=7    y=176  width=3    height=30   xoffset=8    yoffset=4    xadvance=19   page=0    chnl=0
char id=167  x=464  y=16   width=15   height=26   xoffset=2    yoffset=4    xadvance=19   page=0    chnl=0
char id=168  x=211  y=8    width=9    height=3    xoffset=5    yoffset=5    xadvance=19   page=0    chnl=0
char id=169  x=49   y=128  width=19   height=24   xoffset=0    yoffset=2    xadvance=19   page=0    chnl=0
char id=170  x=80   y=2    width=13   height=12   xoffset=3    yoffset=5    xadvance=19   page=0    chnl=0
char id=171  x=95   y=2    width=16   height=12   xoffset=2    yoffset=13   xadvance=19   page=0    chnl=0
char id=172  x=145  y=2    width=17   height=10   xoffset=1    yoffset=15   xadvance=19   page=0    chnl=0
char id=173  x=229  y=7    width=9    height=3    xoffset=5    yoffset=17   xadvance=19   page=0    chnl=0
char id=174  x=49   y=154  width=19   height=24   xoffset=0    yoffset=2    xadvance=19   page=0    chnl=0
char id=175  x=229  y=2    width=19   height=3    xoffset=0    yoffset=1    xadvance=19   page=0    chnl=0
char id=176  x=176  y=2    width=9    height=9    xoffset=5    yoffset=6    xadvance=19   page=0    chnl=0
char id=177  x=282  y=72   width=16   height=19   xoffset=2    yoffset=8    xadvance=19   page=0    chnl=0
char id=178  x=2    y=275  width=10   height=13   xoffset=5    yoffset=5    xadvance=19   page=0    chnl=0
char id=179  x=2    y=290  width=11   height=13   xoffset=4    yoffset=5    xadvance=19   page=0    chnl=0
char id=180  x=202  y=8    width=7    height=4    xoffset=6    yoffset=4    xadvance=19   page=0    chnl=0
char id=181  x=49   y=305  width=15   height=23   xoffset=2    yoffset=10   xadvance=19   page=0    chnl=0
char id=182  x=128  y=16   width=15   height=27   xoffset=1    yoffset=6    xadvance=19   page=0    chnl=0
char id=183  x=196  y=9    width=4    height=5    xoffset=8    yoffset=16   xadvance=19   page=0    chnl=0
char id=184  x=187  y=2    width=7    height=7    xoffset=1    yoffset=27   xadvance=19   page=0    chnl=0
char id=185  x=2    y=305  width=10   height=13   xoffset=5    yoffset=5    xadvance=19   page=0    chnl=0
char id=186  x=48   y=2    width=12   height=12   xoffset=4    yoffset=5    xadvance=19   page=0    chnl=0
char id=187  x=62   y=2    width=16   height=12   xoffset=2    yoffset=13   xadvance=19   page=0    chnl=0
char id=188  x=111  y=48   width=19   height=22   xoffset=0    yoffset=5    xadvance=19   page=0    chnl=0
char id=189  x=199  y=72   width=19   height=21   xoffset=0    yoffset=6    xadvance=19   page=0    chnl=0
char id=190  x=89   y=48   width=20   height=22   xoffset=0    yoffset=5    xadvance=19   page=0    chnl=0
char id=191  x=72   y=141  width=16   height=21   xoffset=2    yoffset=10   xadvance=19   page=0    chnl=0
char id=192  x=145  y=16   width=20   height=27   xoffset=0    yoffset=0    xadvance=19   page=0    chnl=0
char id=193  x=167  y=16   width=20   height=27   xoffset=0    yoffset=0    xadvance=19   page=0    chnl=0
char id=194  x=189  y=16   width=20   height=27   xoffset=-1   yoffset=0    xadvance=19   page=0    chnl=0
char id=195  x=211  y=16   width=20   height=27   xoffset=0    yoffset=0    xadvance=19   page=0    chnl=0
char id=196  x=49   y=48   width=21   height=25   xoffset=-1   yoffset=2    xadvance=19   page=0    chnl=0
char id=197  x=481  y=16   width=20   height=26   xoffset=0    yoffset=1    xadvance=19   page=0    chnl=0
char id=198  x=177  y=72   width=20   height=21   xoffset=-1   yoffset=6    xadvance=19   page=0    chnl=0
char id=199  x=92   y=16   width=16   height=28   xoffset=2    yoffset=6    xadvance=19   page=0    chnl=0
char id=200  x=233  y=16   width=15   height=27   xoffset=3    yoffset=0    xadvance=19   page=0    chnl=0
char id=201  x=250  y=16   width=15   height=27   xoffset=3    yoffset=0    xadvance=19   page=0    chnl=0
char id=202  x=267  y=16   width=15   height=27   xoffset=3    yoffset=0    xadvance=19   page=0    chnl=0
char id=203  x=31   y=76   width=15   height=25   xoffset=3    yoffset=2    xadvance=19   page=0    chnl=0
char id=204  x=15   y=112  width=13   height=27   xoffset=3    yoffset=0    xadvance=19   page=0    chnl=0
char id=205  x=15   y=141  width=13   height=27   xoffset=3    yoffset=0    xadvance=19   page=0    chnl=0
char id=206  x=15   y=170  width=13   height=27   xoffset=3    yoffset=0    xadvance=19   page=0    chnl=0
char id=207  x=15   y=228  width=13   height=25   xoffset=3    yoffset=2    xadvance=19   page=0    chnl=0
char id=208  x=72   y=187  width=17   height=21   xoffset=1    yoffset=6    xadvance=19   page=0    chnl=0
char id=209  x=15   y=199  width=14   height=27   xoffset=3    yoffset=0    xadvance=19   page=0    chnl=0
char id=210  x=284  y=16   width=16   height=27   xoffset=2    yoffset=0    xadvance=19   page=0    chnl=0
char id=211  x=302  y=16   width=16   height=27   xoffset=2    yoffset=0    xadvance=19   page=0    chnl=0
char id=212  x=320  y=16   width=16   height=27   xoffset=2    yoffset=0    xadvance=19   page=0    chnl=0
char id=213  x=338  y=16   width=16   height=27   xoffset=2    yoffset=0    xadvance=19   page=0    chnl=0
char id=214  x=31   y=48   width=16   height=26   xoffset=2    yoffset=1    xadvance=19   page=0    chnl=0
char id=215  x=91   y=207  width=15   height=15   xoffset=2    yoffset=9    xadvance=19   page=0    chnl=0
char id=216  x=49   y=180  width=18   height=23   xoffset=1    yoffset=5    xadvance=19   page=0    chnl=0
char id=217  x=356  y=16   width=15   height=27   xoffset=2    yoffset=0    xadvance=19   page=0    chnl=0
char id=218  x=373  y=16   width=15   height=27   xoffset=2    yoffset=0    xadvance=19   page=0    chnl=0
char id=219  x=390  y=16   width=15   height=27   xoffset=2    yoffset=0    xadvance=19   page=0    chnl=0
char id=220  x=447  y=16   width=15   height=26   xoffset=2    yoffset=1    xadvance=19   page=0    chnl=0
char id=221  x=407  y=16   width=19   height=27   xoffset=0    yoffset=0    xadvance=19   page=0    chnl=0
char id=222  x=72   y=486  width=15   height=21   xoffset=3    yoffset=6    xadvance=19   page=0    chnl=0
char id=223  x=49   y=430  width=16   height=23   xoffset=2    yoffset=4    xadvance=19   page=0    chnl=0
char id=224  x=49   y=205  width=17   height=23   xoffset=2    yoffset=4    xadvance=19   page=0    chnl=0
char id=225  x=49   y=455  width=17   height=23   xoffset=2    yoffset=4    xadvance=19   page=0    chnl=0
char id=226  x=49   y=255  width=17   height=23   xoffset=2    yoffset=4    xadvance=19   page=0    chnl=0
char id=227  x=49   y=230  width=17   height=23   xoffset=2    yoffset=4    xadvance=19   page=0    chnl=0
char id=228  x=132  y=48   width=17   height=22   xoffset=2    yoffset=5    xadvance=19   page=0    chnl=0
char id=229  x=49   y=75   width=17   height=25   xoffset=2    yoffset=2    xadvance=19   page=0    chnl=0
char id=230  x=91   y=95   width=19   height=17   xoffset=1    yoffset=10   xadvance=19   page=0    chnl=0
char id=231  x=31   y=155  width=16   height=24   xoffset=2    yoffset=10   xadvance=19   page=0    chnl=0
char id=232  x=49   y=280  width=15   height=23   xoffset=2    yoffset=4    xadvance=19   page=0    chnl=0
char id=233  x=31   y=206  width=15   height=23   xoffset=2    yoffset=4    xadvance=19   page=0    chnl=0
char id=234  x=31   y=231  width=15   height=23   xoffset=2    yoffset=4    xadvance=19   page=0    chnl=0
char id=235  x=49   y=480  width=15   height=22   xoffset=2    yoffset=5    xadvance=19   page=0    chnl=0
char id=236  x=31   y=331  width=15   height=23   xoffset=2    yoffset=4    xadvance=19   page=0    chnl=0
char id=237  x=31   y=356  width=15   height=23   xoffset=2    yoffset=4    xadvance=19   page=0    chnl=0
char id=238  x=31   y=381  width=15   height=23   xoffset=2    yoffset=4    xadvance=19   page=0    chnl=0
char id=239  x=72   y=48   width=15   height=22   xoffset=2    yoffset=5    xadvance=19   page=0    chnl=0
char id=240  x=31   y=129  width=15   height=24   xoffset=2    yoffset=3    xadvance=19   page=0    chnl=0
char id=241  x=31   y=181  width=15   height=23   xoffset=2    yoffset=4    xadvance=19   page=0    chnl=0
char id=242  x=31   y=256  width=15   height=23   xoffset=2    yoffset=4    xadvance=19   page=0    chnl=0
char id=243  x=49   y=355  width=15   height=23   xoffset=2    yoffset=4    xadvance=19   page=0    chnl=0
char id=244  x=31   y=431  width=15   height=23   xoffset=2    yoffset=4    xadvance=19   page=0    chnl=0
char id=245  x=49   y=405  width=15   height=23   xoffset=2    yoffset=4    xadvance=19   page=0    chnl=0
char id=246  x=151  y=48   width=15   height=22   xoffset=2    yoffset=5    xadvance=19   page=0    chnl=0
char id=247  x=91   y=241  width=16   height=14   xoffset=2    yoffset=10   xadvance=19   page=0    chnl=0
char id=248  x=425  y=72   width=16   height=17   xoffset=2    yoffset=10   xadvance=19   page=0    chnl=0
char id=249  x=15   y=407  width=14   height=23   xoffset=3    yoffset=4    xadvance=19   page=0    chnl=0
char id=250  x=15   y=382  width=14   height=23   xoffset=3    yoffset=4    xadvance=19   page=0    chnl=0
char id=251  x=15   y=357  width=14   height=23   xoffset=3    yoffset=4    xadvance=19   page=0    chnl=0
char id=252  x=15   y=432  width=14   height=22   xoffset=3    yoffset=5    xadvance=19   page=0    chnl=0
char id=253  x=31   y=16   width=18   height=30   xoffset=1    yoffset=4    xadvance=19   page=0    chnl=0
char id=254  x=15   y=16   width=14   height=30   xoffset=3    yoffset=4    xadvance=19   page=0    chnl=0
char id=255  x=51   y=16   width=19   height=28   xoffset=0    yoffset=6    xadvance=19   page=0    chnl=0
char id=8364 x=72   y=463  width=16   height=21   xoffset=1    yoffset=6    xadvance=19   page=0    chnl=0
kernings count=0
