





<!DOCTYPE html>
<html lang="en">
  <head>
    <meta charset="utf-8">
  <link rel="dns-prefetch" href="https://assets-cdn.github.com">
  <link rel="dns-prefetch" href="https://avatars0.githubusercontent.com">
  <link rel="dns-prefetch" href="https://avatars1.githubusercontent.com">
  <link rel="dns-prefetch" href="https://avatars2.githubusercontent.com">
  <link rel="dns-prefetch" href="https://avatars3.githubusercontent.com">
  <link rel="dns-prefetch" href="https://github-cloud.s3.amazonaws.com">
  <link rel="dns-prefetch" href="https://user-images.githubusercontent.com/">



  <link crossorigin="anonymous" href="https://assets-cdn.github.com/assets/frameworks-4324702744188e5d6edc78c06517458705b8d6596db5054c244444b56c494c99.css" integrity="sha256-QyRwJ0QYjl1u3HjAZRdFhwW41llttQVMJEREtWxJTJk=" media="all" rel="stylesheet" />
  <link crossorigin="anonymous" href="https://assets-cdn.github.com/assets/github-3275d9ea76509b10f17644a7ab90234b6a287aa6215c95cfc210055722a516c7.css" integrity="sha256-MnXZ6nZQmxDxdkSnq5AjS2ooeqYhXJXPwhAFVyKlFsc=" media="all" rel="stylesheet" />
  
  
  <link crossorigin="anonymous" href="https://assets-cdn.github.com/assets/site-b89b61304cc3b6f8a28ba20032605e245bda635c12445a7012f3e3f1a993eb99.css" integrity="sha256-uJthMEzDtviii6IAMmBeJFvaY1wSRFpwEvPj8amT65k=" media="all" rel="stylesheet" />
  

  <meta name="viewport" content="width=device-width">
  
  <title>gdx-smart-font/exo-small.fnt at master · jrenner/gdx-smart-font · GitHub</title>
  <link rel="search" type="application/opensearchdescription+xml" href="/opensearch.xml" title="GitHub">
  <link rel="fluid-icon" href="https://github.com/fluidicon.png" title="GitHub">
  <meta property="fb:app_id" content="1401488693436528">

    
    <meta content="https://avatars0.githubusercontent.com/u/1393288?v=4&amp;s=400" property="og:image" /><meta content="GitHub" property="og:site_name" /><meta content="object" property="og:type" /><meta content="jrenner/gdx-smart-font" property="og:title" /><meta content="https://github.com/jrenner/gdx-smart-font" property="og:url" /><meta content="gdx-smart-font - (LibGDX) Generate bitmap fonts in proportion to screen size and cache them to file." property="og:description" />

  <link rel="assets" href="https://assets-cdn.github.com/">
  
  <meta name="pjax-timeout" content="1000">
  
  <meta name="request-id" content="C21C:4994:17A1AC7:28F6454:5970C661" data-pjax-transient>
  

  <meta name="selected-link" value="repo_source" data-pjax-transient>

  <meta name="google-site-verification" content="KT5gs8h0wvaagLKAVWq8bbeNwnZZK1r1XQysX3xurLU">
<meta name="google-site-verification" content="ZzhVyEFwb7w3e0-uOTltm8Jsck2F5StVihD0exw2fsA">
    <meta name="google-analytics" content="UA-3769691-2">

<meta content="collector.githubapp.com" name="octolytics-host" /><meta content="github" name="octolytics-app-id" /><meta content="https://collector.githubapp.com/github-external/browser_event" name="octolytics-event-url" /><meta content="C21C:4994:17A1AC7:28F6454:5970C661" name="octolytics-dimension-request_id" /><meta content="iad" name="octolytics-dimension-region_edge" /><meta content="iad" name="octolytics-dimension-region_render" />
<meta content="/&lt;user-name&gt;/&lt;repo-name&gt;/blob/show" data-pjax-transient="true" name="analytics-location" />




  <meta class="js-ga-set" name="dimension1" content="Logged Out">


  

      <meta name="hostname" content="github.com">
  <meta name="user-login" content="">

      <meta name="expected-hostname" content="github.com">
    <meta name="js-proxy-site-detection-payload" content="NzFlM2FiODZiNjQ2NzYwYTA4N2VkZDM2NzYzZDFjODE0NzFkYzNjYjEyMjM1NzcwM2EyNTljNzkyMzIyZTAxNnx7InJlbW90ZV9hZGRyZXNzIjoiODMuMjU0LjE4MS4xNDQiLCJyZXF1ZXN0X2lkIjoiQzIxQzo0OTk0OjE3QTFBQzc6MjhGNjQ1NDo1OTcwQzY2MSIsInRpbWVzdGFtcCI6MTUwMDU2MzA0NiwiaG9zdCI6ImdpdGh1Yi5jb20ifQ==">


  <meta name="html-safe-nonce" content="0543e6ce41c78df59f1c812b135c0ce17656c105">

  <meta http-equiv="x-pjax-version" content="df637b58930c11506e31dd60aa2cd5b8">
  

      <link href="https://github.com/jrenner/gdx-smart-font/commits/master.atom" rel="alternate" title="Recent Commits to gdx-smart-font:master" type="application/atom+xml">

  <meta name="description" content="gdx-smart-font - (LibGDX) Generate bitmap fonts in proportion to screen size and cache them to file.">
  <meta name="go-import" content="github.com/jrenner/gdx-smart-font git https://github.com/jrenner/gdx-smart-font.git">

  <meta content="1393288" name="octolytics-dimension-user_id" /><meta content="jrenner" name="octolytics-dimension-user_login" /><meta content="16877300" name="octolytics-dimension-repository_id" /><meta content="jrenner/gdx-smart-font" name="octolytics-dimension-repository_nwo" /><meta content="true" name="octolytics-dimension-repository_public" /><meta content="false" name="octolytics-dimension-repository_is_fork" /><meta content="16877300" name="octolytics-dimension-repository_network_root_id" /><meta content="jrenner/gdx-smart-font" name="octolytics-dimension-repository_network_root_nwo" /><meta content="false" name="octolytics-dimension-repository_explore_github_marketplace_ci_cta_shown" />


    <link rel="canonical" href="https://github.com/jrenner/gdx-smart-font/blob/master/assets/generated-fonts/exo-small.fnt" data-pjax-transient>


  <meta name="browser-stats-url" content="https://api.github.com/_private/browser/stats">

  <meta name="browser-errors-url" content="https://api.github.com/_private/browser/errors">

  <link rel="mask-icon" href="https://assets-cdn.github.com/pinned-octocat.svg" color="#000000">
  <link rel="icon" type="image/x-icon" href="https://assets-cdn.github.com/favicon.ico">

<meta name="theme-color" content="#1e2327">


  <meta name="u2f-support" content="true">

  </head>

  <body class="logged-out env-production page-blob">
    



  <div class="position-relative js-header-wrapper ">
    <a href="#start-of-content" tabindex="1" class="px-2 py-4 show-on-focus js-skip-to-content">Skip to content</a>
    <div id="js-pjax-loader-bar" class="pjax-loader-bar"><div class="progress"></div></div>

    
    
    



          <header class="site-header js-details-container Details" role="banner">
  <div class="site-nav-container">
    <a class="header-logo-invertocat" href="https://github.com/" aria-label="Homepage" data-ga-click="(Logged out) Header, go to homepage, icon:logo-wordmark">
      <svg aria-hidden="true" class="octicon octicon-mark-github" height="32" version="1.1" viewBox="0 0 16 16" width="32"><path fill-rule="evenodd" d="M8 0C3.58 0 0 3.58 0 8c0 3.54 2.29 6.53 5.47 7.59.4.07.55-.17.55-.38 0-.19-.01-.82-.01-1.49-2.01.37-2.53-.49-2.69-.94-.09-.23-.48-.94-.82-1.13-.28-.15-.68-.52-.01-.53.63-.01 1.08.58 1.23.82.72 1.21 1.87.87 2.33.66.07-.52.28-.87.51-1.07-1.78-.2-3.64-.89-3.64-3.95 0-.87.31-1.59.82-2.15-.08-.2-.36-1.02.08-2.12 0 0 .67-.21 2.2.82.64-.18 1.32-.27 2-.27.68 0 1.36.09 2 .27 1.53-1.04 2.2-.82 2.2-.82.44 1.1.16 1.92.08 2.12.51.56.82 1.27.82 2.15 0 3.07-1.87 3.75-3.65 3.95.29.25.54.73.54 1.48 0 1.07-.01 1.93-.01 2.2 0 .21.15.46.55.38A8.013 8.013 0 0 0 16 8c0-4.42-3.58-8-8-8z"/></svg>
    </a>

    <button class="btn-link float-right site-header-toggle js-details-target" type="button" aria-label="Toggle navigation" aria-expanded="false">
      <svg aria-hidden="true" class="octicon octicon-three-bars" height="24" version="1.1" viewBox="0 0 12 16" width="18"><path fill-rule="evenodd" d="M11.41 9H.59C0 9 0 8.59 0 8c0-.59 0-1 .59-1H11.4c.59 0 .59.41.59 1 0 .59 0 1-.59 1h.01zm0-4H.59C0 5 0 4.59 0 4c0-.59 0-1 .59-1H11.4c.59 0 .59.41.59 1 0 .59 0 1-.59 1h.01zM.59 11H11.4c.59 0 .59.41.59 1 0 .59 0 1-.59 1H.59C0 13 0 12.59 0 12c0-.59 0-1 .59-1z"/></svg>
    </button>

    <div class="site-header-menu">
      <nav class="site-header-nav">
        <a href="/features" class="js-selected-navigation-item nav-item" data-ga-click="Header, click, Nav menu - item:features" data-selected-links="/features /features/code-review /features/project-management /features/integrations /features">
          Features
</a>        <a href="/business" class="js-selected-navigation-item nav-item" data-ga-click="Header, click, Nav menu - item:business" data-selected-links="/business /business/security /business/customers /business">
          Business
</a>        <a href="/explore" class="js-selected-navigation-item nav-item" data-ga-click="Header, click, Nav menu - item:explore" data-selected-links="/explore /trending /trending/developers /stars /integrations /integrations/feature/code /integrations/feature/collaborate /integrations/feature/ship showcases showcases_search showcases_landing /explore">
          Explore
</a>            <a href="/marketplace" class="js-selected-navigation-item nav-item" data-ga-click="Header, click, Nav menu - item:marketplace" data-selected-links=" /marketplace">
              Marketplace
</a>        <a href="/pricing" class="js-selected-navigation-item nav-item" data-ga-click="Header, click, Nav menu - item:pricing" data-selected-links="/pricing /pricing/developer /pricing/team /pricing/business-hosted /pricing/business-enterprise /pricing">
          Pricing
</a>      </nav>

      <div class="site-header-actions">
          <div class="header-search scoped-search site-scoped-search js-site-search" role="search">
  <!-- '"` --><!-- </textarea></xmp> --></option></form><form accept-charset="UTF-8" action="/jrenner/gdx-smart-font/search" class="js-site-search-form" data-scoped-search-url="/jrenner/gdx-smart-font/search" data-unscoped-search-url="/search" method="get"><div style="margin:0;padding:0;display:inline"><input name="utf8" type="hidden" value="&#x2713;" /></div>
    <label class="form-control header-search-wrapper js-chromeless-input-container">
        <a href="/jrenner/gdx-smart-font/blob/master/assets/generated-fonts/exo-small.fnt" class="header-search-scope no-underline">This repository</a>
      <input type="text"
        class="form-control header-search-input js-site-search-focus js-site-search-field is-clearable"
        data-hotkey="s"
        name="q"
        value=""
        placeholder="Search"
        aria-label="Search this repository"
        data-unscoped-placeholder="Search GitHub"
        data-scoped-placeholder="Search"
        autocapitalize="off">
        <input type="hidden" class="js-site-search-type-field" name="type" >
    </label>
</form></div>


          <a class="text-bold site-header-link" href="/login?return_to=%2Fjrenner%2Fgdx-smart-font%2Fblob%2Fmaster%2Fassets%2Fgenerated-fonts%2Fexo-small.fnt" data-ga-click="(Logged out) Header, clicked Sign in, text:sign-in">Sign in</a>
            <span class="text-gray">or</span>
            <a class="text-bold site-header-link" href="/join?source=header-repo" data-ga-click="(Logged out) Header, clicked Sign up, text:sign-up">Sign up</a>
      </div>
    </div>
  </div>
</header>


  </div>

  <div id="start-of-content" class="show-on-focus"></div>

    <div id="js-flash-container">
</div>



  <div role="main">
        <div itemscope itemtype="http://schema.org/SoftwareSourceCode">
    <div id="js-repo-pjax-container" data-pjax-container>
      




    <div class="pagehead repohead instapaper_ignore readability-menu experiment-repo-nav">
      <div class="container repohead-details-container">

        <ul class="pagehead-actions">
  <li>
      <a href="/login?return_to=%2Fjrenner%2Fgdx-smart-font"
    class="btn btn-sm btn-with-count tooltipped tooltipped-n"
    aria-label="You must be signed in to watch a repository" rel="nofollow">
    <svg aria-hidden="true" class="octicon octicon-eye" height="16" version="1.1" viewBox="0 0 16 16" width="16"><path fill-rule="evenodd" d="M8.06 2C3 2 0 8 0 8s3 6 8.06 6C13 14 16 8 16 8s-3-6-7.94-6zM8 12c-2.2 0-4-1.78-4-4 0-2.2 1.8-4 4-4 2.22 0 4 1.8 4 4 0 2.22-1.78 4-4 4zm2-4c0 1.11-.89 2-2 2-1.11 0-2-.89-2-2 0-1.11.89-2 2-2 1.11 0 2 .89 2 2z"/></svg>
    Watch
  </a>
  <a class="social-count" href="/jrenner/gdx-smart-font/watchers"
     aria-label="10 users are watching this repository">
    10
  </a>

  </li>

  <li>
      <a href="/login?return_to=%2Fjrenner%2Fgdx-smart-font"
    class="btn btn-sm btn-with-count tooltipped tooltipped-n"
    aria-label="You must be signed in to star a repository" rel="nofollow">
    <svg aria-hidden="true" class="octicon octicon-star" height="16" version="1.1" viewBox="0 0 14 16" width="14"><path fill-rule="evenodd" d="M14 6l-4.9-.64L7 1 4.9 5.36 0 6l3.6 3.26L2.67 14 7 11.67 11.33 14l-.93-4.74z"/></svg>
    Star
  </a>

    <a class="social-count js-social-count" href="/jrenner/gdx-smart-font/stargazers"
      aria-label="49 users starred this repository">
      49
    </a>

  </li>

  <li>
      <a href="/login?return_to=%2Fjrenner%2Fgdx-smart-font"
        class="btn btn-sm btn-with-count tooltipped tooltipped-n"
        aria-label="You must be signed in to fork a repository" rel="nofollow">
        <svg aria-hidden="true" class="octicon octicon-repo-forked" height="16" version="1.1" viewBox="0 0 10 16" width="10"><path fill-rule="evenodd" d="M8 1a1.993 1.993 0 0 0-1 3.72V6L5 8 3 6V4.72A1.993 1.993 0 0 0 2 1a1.993 1.993 0 0 0-1 3.72V6.5l3 3v1.78A1.993 1.993 0 0 0 5 15a1.993 1.993 0 0 0 1-3.72V9.5l3-3V4.72A1.993 1.993 0 0 0 8 1zM2 4.2C1.34 4.2.8 3.65.8 3c0-.65.55-1.2 1.2-1.2.65 0 1.2.55 1.2 1.2 0 .65-.55 1.2-1.2 1.2zm3 10c-.66 0-1.2-.55-1.2-1.2 0-.65.55-1.2 1.2-1.2.65 0 1.2.55 1.2 1.2 0 .65-.55 1.2-1.2 1.2zm3-10c-.66 0-1.2-.55-1.2-1.2 0-.65.55-1.2 1.2-1.2.65 0 1.2.55 1.2 1.2 0 .65-.55 1.2-1.2 1.2z"/></svg>
        Fork
      </a>

    <a href="/jrenner/gdx-smart-font/network" class="social-count"
       aria-label="12 users forked this repository">
      12
    </a>
  </li>
</ul>

        <h1 class="public ">
  <svg aria-hidden="true" class="octicon octicon-repo" height="16" version="1.1" viewBox="0 0 12 16" width="12"><path fill-rule="evenodd" d="M4 9H3V8h1v1zm0-3H3v1h1V6zm0-2H3v1h1V4zm0-2H3v1h1V2zm8-1v12c0 .55-.45 1-1 1H6v2l-1.5-1.5L3 16v-2H1c-.55 0-1-.45-1-1V1c0-.55.45-1 1-1h10c.55 0 1 .45 1 1zm-1 10H1v2h2v-1h3v1h5v-2zm0-10H2v9h9V1z"/></svg>
  <span class="author" itemprop="author"><a href="/jrenner" class="url fn" rel="author">jrenner</a></span><!--
--><span class="path-divider">/</span><!--
--><strong itemprop="name"><a href="/jrenner/gdx-smart-font" data-pjax="#js-repo-pjax-container">gdx-smart-font</a></strong>

</h1>

      </div>
      <div class="container">
        
<nav class="reponav js-repo-nav js-sidenav-container-pjax"
     itemscope
     itemtype="http://schema.org/BreadcrumbList"
     role="navigation"
     data-pjax="#js-repo-pjax-container">

  <span itemscope itemtype="http://schema.org/ListItem" itemprop="itemListElement">
    <a href="/jrenner/gdx-smart-font" class="js-selected-navigation-item selected reponav-item" data-hotkey="g c" data-selected-links="repo_source repo_downloads repo_commits repo_releases repo_tags repo_branches /jrenner/gdx-smart-font" itemprop="url">
      <svg aria-hidden="true" class="octicon octicon-code" height="16" version="1.1" viewBox="0 0 14 16" width="14"><path fill-rule="evenodd" d="M9.5 3L8 4.5 11.5 8 8 11.5 9.5 13 14 8 9.5 3zm-5 0L0 8l4.5 5L6 11.5 2.5 8 6 4.5 4.5 3z"/></svg>
      <span itemprop="name">Code</span>
      <meta itemprop="position" content="1">
</a>  </span>

    <span itemscope itemtype="http://schema.org/ListItem" itemprop="itemListElement">
      <a href="/jrenner/gdx-smart-font/issues" class="js-selected-navigation-item reponav-item" data-hotkey="g i" data-selected-links="repo_issues repo_labels repo_milestones /jrenner/gdx-smart-font/issues" itemprop="url">
        <svg aria-hidden="true" class="octicon octicon-issue-opened" height="16" version="1.1" viewBox="0 0 14 16" width="14"><path fill-rule="evenodd" d="M7 2.3c3.14 0 5.7 2.56 5.7 5.7s-2.56 5.7-5.7 5.7A5.71 5.71 0 0 1 1.3 8c0-3.14 2.56-5.7 5.7-5.7zM7 1C3.14 1 0 4.14 0 8s3.14 7 7 7 7-3.14 7-7-3.14-7-7-7zm1 3H6v5h2V4zm0 6H6v2h2v-2z"/></svg>
        <span itemprop="name">Issues</span>
        <span class="Counter">2</span>
        <meta itemprop="position" content="2">
</a>    </span>

  <span itemscope itemtype="http://schema.org/ListItem" itemprop="itemListElement">
    <a href="/jrenner/gdx-smart-font/pulls" class="js-selected-navigation-item reponav-item" data-hotkey="g p" data-selected-links="repo_pulls /jrenner/gdx-smart-font/pulls" itemprop="url">
      <svg aria-hidden="true" class="octicon octicon-git-pull-request" height="16" version="1.1" viewBox="0 0 12 16" width="12"><path fill-rule="evenodd" d="M11 11.28V5c-.03-.78-.34-1.47-.94-2.06C9.46 2.35 8.78 2.03 8 2H7V0L4 3l3 3V4h1c.27.02.48.11.69.31.21.2.3.42.31.69v6.28A1.993 1.993 0 0 0 10 15a1.993 1.993 0 0 0 1-3.72zm-1 2.92c-.66 0-1.2-.55-1.2-1.2 0-.65.55-1.2 1.2-1.2.65 0 1.2.55 1.2 1.2 0 .65-.55 1.2-1.2 1.2zM4 3c0-1.11-.89-2-2-2a1.993 1.993 0 0 0-1 3.72v6.56A1.993 1.993 0 0 0 2 15a1.993 1.993 0 0 0 1-3.72V4.72c.59-.34 1-.98 1-1.72zm-.8 10c0 .66-.55 1.2-1.2 1.2-.65 0-1.2-.55-1.2-1.2 0-.65.55-1.2 1.2-1.2.65 0 1.2.55 1.2 1.2zM2 4.2C1.34 4.2.8 3.65.8 3c0-.65.55-1.2 1.2-1.2.65 0 1.2.55 1.2 1.2 0 .65-.55 1.2-1.2 1.2z"/></svg>
      <span itemprop="name">Pull requests</span>
      <span class="Counter">0</span>
      <meta itemprop="position" content="3">
</a>  </span>

    <a href="/jrenner/gdx-smart-font/projects" class="js-selected-navigation-item reponav-item" data-selected-links="repo_projects new_repo_project repo_project /jrenner/gdx-smart-font/projects">
      <svg aria-hidden="true" class="octicon octicon-project" height="16" version="1.1" viewBox="0 0 15 16" width="15"><path fill-rule="evenodd" d="M10 12h3V2h-3v10zm-4-2h3V2H6v8zm-4 4h3V2H2v12zm-1 1h13V1H1v14zM14 0H1a1 1 0 0 0-1 1v14a1 1 0 0 0 1 1h13a1 1 0 0 0 1-1V1a1 1 0 0 0-1-1z"/></svg>
      Projects
      <span class="Counter" >0</span>
</a>


    <div class="reponav-dropdown js-menu-container">
      <button type="button" class="btn-link reponav-item reponav-dropdown js-menu-target " data-no-toggle aria-expanded="false" aria-haspopup="true">
        Insights
        <svg aria-hidden="true" class="octicon octicon-triangle-down v-align-middle text-gray" height="11" version="1.1" viewBox="0 0 12 16" width="8"><path fill-rule="evenodd" d="M0 5l6 6 6-6z"/></svg>
      </button>
      <div class="dropdown-menu-content js-menu-content">
        <div class="dropdown-menu dropdown-menu-sw">
          <a class="dropdown-item" href="/jrenner/gdx-smart-font/pulse" data-skip-pjax>
            <svg aria-hidden="true" class="octicon octicon-pulse" height="16" version="1.1" viewBox="0 0 14 16" width="14"><path fill-rule="evenodd" d="M11.5 8L8.8 5.4 6.6 8.5 5.5 1.6 2.38 8H0v2h3.6l.9-1.8.9 5.4L9 8.5l1.6 1.5H14V8z"/></svg>
            Pulse
          </a>
          <a class="dropdown-item" href="/jrenner/gdx-smart-font/graphs" data-skip-pjax>
            <svg aria-hidden="true" class="octicon octicon-graph" height="16" version="1.1" viewBox="0 0 16 16" width="16"><path fill-rule="evenodd" d="M16 14v1H0V0h1v14h15zM5 13H3V8h2v5zm4 0H7V3h2v10zm4 0h-2V6h2v7z"/></svg>
            Graphs
          </a>
        </div>
      </div>
    </div>
</nav>

      </div>
    </div>

<div class="container new-discussion-timeline experiment-repo-nav">
  <div class="repository-content">

    
  <a href="/jrenner/gdx-smart-font/blob/e45d5aa0b1f67935c77d48167d91afa012bf7528/assets/generated-fonts/exo-small.fnt" class="d-none js-permalink-shortcut" data-hotkey="y">Permalink</a>

  <!-- blob contrib key: blob_contributors:v21:3fe27c207f29a6370f4e940754395110 -->

  <div class="file-navigation js-zeroclipboard-container">
    
<div class="select-menu branch-select-menu js-menu-container js-select-menu float-left">
  <button class=" btn btn-sm select-menu-button js-menu-target css-truncate" data-hotkey="w"
    
    type="button" aria-label="Switch branches or tags" aria-expanded="false" aria-haspopup="true">
      <i>Branch:</i>
      <span class="js-select-button css-truncate-target">master</span>
  </button>

  <div class="select-menu-modal-holder js-menu-content js-navigation-container" data-pjax>

    <div class="select-menu-modal">
      <div class="select-menu-header">
        <svg aria-label="Close" class="octicon octicon-x js-menu-close" height="16" role="img" version="1.1" viewBox="0 0 12 16" width="12"><path fill-rule="evenodd" d="M7.48 8l3.75 3.75-1.48 1.48L6 9.48l-3.75 3.75-1.48-1.48L4.52 8 .77 4.25l1.48-1.48L6 6.52l3.75-3.75 1.48 1.48z"/></svg>
        <span class="select-menu-title">Switch branches/tags</span>
      </div>

      <div class="select-menu-filters">
        <div class="select-menu-text-filter">
          <input type="text" aria-label="Filter branches/tags" id="context-commitish-filter-field" class="form-control js-filterable-field js-navigation-enable" placeholder="Filter branches/tags">
        </div>
        <div class="select-menu-tabs">
          <ul>
            <li class="select-menu-tab">
              <a href="#" data-tab-filter="branches" data-filter-placeholder="Filter branches/tags" class="js-select-menu-tab" role="tab">Branches</a>
            </li>
            <li class="select-menu-tab">
              <a href="#" data-tab-filter="tags" data-filter-placeholder="Find a tag…" class="js-select-menu-tab" role="tab">Tags</a>
            </li>
          </ul>
        </div>
      </div>

      <div class="select-menu-list select-menu-tab-bucket js-select-menu-tab-bucket" data-tab-filter="branches" role="menu">

        <div data-filterable-for="context-commitish-filter-field" data-filterable-type="substring">


            <a class="select-menu-item js-navigation-item js-navigation-open selected"
               href="/jrenner/gdx-smart-font/blob/master/assets/generated-fonts/exo-small.fnt"
               data-name="master"
               data-skip-pjax="true"
               rel="nofollow">
              <svg aria-hidden="true" class="octicon octicon-check select-menu-item-icon" height="16" version="1.1" viewBox="0 0 12 16" width="12"><path fill-rule="evenodd" d="M12 5l-8 8-4-4 1.5-1.5L4 10l6.5-6.5z"/></svg>
              <span class="select-menu-item-text css-truncate-target js-select-menu-filter-text">
                master
              </span>
            </a>
        </div>

          <div class="select-menu-no-results">Nothing to show</div>
      </div>

      <div class="select-menu-list select-menu-tab-bucket js-select-menu-tab-bucket" data-tab-filter="tags">
        <div data-filterable-for="context-commitish-filter-field" data-filterable-type="substring">


        </div>

        <div class="select-menu-no-results">Nothing to show</div>
      </div>

    </div>
  </div>
</div>

    <div class="BtnGroup float-right">
      <a href="/jrenner/gdx-smart-font/find/master"
            class="js-pjax-capture-input btn btn-sm BtnGroup-item"
            data-pjax
            data-hotkey="t">
        Find file
      </a>
      <button aria-label="Copy file path to clipboard" class="js-zeroclipboard btn btn-sm BtnGroup-item tooltipped tooltipped-s" data-copied-hint="Copied!" type="button">Copy path</button>
    </div>
    <div class="breadcrumb js-zeroclipboard-target">
      <span class="repo-root js-repo-root"><span class="js-path-segment"><a href="/jrenner/gdx-smart-font"><span>gdx-smart-font</span></a></span></span><span class="separator">/</span><span class="js-path-segment"><a href="/jrenner/gdx-smart-font/tree/master/assets"><span>assets</span></a></span><span class="separator">/</span><span class="js-path-segment"><a href="/jrenner/gdx-smart-font/tree/master/assets/generated-fonts"><span>generated-fonts</span></a></span><span class="separator">/</span><strong class="final-path">exo-small.fnt</strong>
    </div>
  </div>


  
  <div class="commit-tease">
      <span class="float-right">
        <a class="commit-tease-sha" href="/jrenner/gdx-smart-font/commit/f1694276986ea101126bd50725b58cdae0d41680" data-pjax>
          f169427
        </a>
        <relative-time datetime="2014-02-16T03:11:32Z">Feb 16, 2014</relative-time>
      </span>
      <div>
        <img alt="@jrenner" class="avatar" height="20" src="https://avatars3.githubusercontent.com/u/1393288?v=4&amp;s=40" width="20" />
        <a href="/jrenner" class="user-mention" rel="author">jrenner</a>
          <a href="/jrenner/gdx-smart-font/commit/f1694276986ea101126bd50725b58cdae0d41680" class="message" data-pjax="true" title="initial commit">initial commit</a>
      </div>

    <div class="commit-tease-contributors">
      <button type="button" class="btn-link muted-link contributors-toggle" data-facebox="#blob_contributors_box">
        <strong>1</strong>
         contributor
      </button>
      
    </div>

    <div id="blob_contributors_box" style="display:none">
      <h2 class="facebox-header" data-facebox-id="facebox-header">Users who have contributed to this file</h2>
      <ul class="facebox-user-list" data-facebox-id="facebox-description">
          <li class="facebox-user-list-item">
            <img alt="@jrenner" height="24" src="https://avatars1.githubusercontent.com/u/1393288?v=4&amp;s=48" width="24" />
            <a href="/jrenner">jrenner</a>
          </li>
      </ul>
    </div>
  </div>

  <div class="file">
    <div class="file-header">
  <div class="file-actions">

    <div class="BtnGroup">
      <a href="/jrenner/gdx-smart-font/raw/master/assets/generated-fonts/exo-small.fnt" class="btn btn-sm BtnGroup-item" id="raw-url">Raw</a>
        <a href="/jrenner/gdx-smart-font/blame/master/assets/generated-fonts/exo-small.fnt" class="btn btn-sm js-update-url-with-hash BtnGroup-item" data-hotkey="b">Blame</a>
      <a href="/jrenner/gdx-smart-font/commits/master/assets/generated-fonts/exo-small.fnt" class="btn btn-sm BtnGroup-item" rel="nofollow">History</a>
    </div>

        <a class="btn-octicon tooltipped tooltipped-nw"
           href="https://desktop.github.com"
           aria-label="Open this file in GitHub Desktop"
           data-ga-click="Repository, open with desktop, type:windows">
            <svg aria-hidden="true" class="octicon octicon-device-desktop" height="16" version="1.1" viewBox="0 0 16 16" width="16"><path fill-rule="evenodd" d="M15 2H1c-.55 0-1 .45-1 1v9c0 .55.45 1 1 1h5.34c-.25.61-.86 1.39-2.34 2h8c-1.48-.61-2.09-1.39-2.34-2H15c.55 0 1-.45 1-1V3c0-.55-.45-1-1-1zm0 9H1V3h14v8z"/></svg>
        </a>

        <button type="button" class="btn-octicon disabled tooltipped tooltipped-nw"
          aria-label="You must be signed in to make or propose changes">
          <svg aria-hidden="true" class="octicon octicon-pencil" height="16" version="1.1" viewBox="0 0 14 16" width="14"><path fill-rule="evenodd" d="M0 12v3h3l8-8-3-3-8 8zm3 2H1v-2h1v1h1v1zm10.3-9.3L12 6 9 3l1.3-1.3a.996.996 0 0 1 1.41 0l1.59 1.59c.39.39.39 1.02 0 1.41z"/></svg>
        </button>
        <button type="button" class="btn-octicon btn-octicon-danger disabled tooltipped tooltipped-nw"
          aria-label="You must be signed in to make or propose changes">
          <svg aria-hidden="true" class="octicon octicon-trashcan" height="16" version="1.1" viewBox="0 0 12 16" width="12"><path fill-rule="evenodd" d="M11 2H9c0-.55-.45-1-1-1H5c-.55 0-1 .45-1 1H2c-.55 0-1 .45-1 1v1c0 .55.45 1 1 1v9c0 .55.45 1 1 1h7c.55 0 1-.45 1-1V5c.55 0 1-.45 1-1V3c0-.55-.45-1-1-1zm-1 12H3V5h1v8h1V5h1v8h1V5h1v8h1V5h1v9zm1-10H2V3h9v1z"/></svg>
        </button>
  </div>

  <div class="file-info">
      230 lines (229 sloc)
      <span class="file-info-divider"></span>
    23.7 KB
  </div>
</div>

    

  <div itemprop="text" class="blob-wrapper data type-text">
      <table class="highlight tab-size js-file-line-container" data-tab-size="8">
      <tr>
        <td id="L1" class="blob-num js-line-number" data-line-number="1"></td>
        <td id="LC1" class="blob-code blob-code-inner js-file-line">info face=&quot;exo-small&quot; size=24 bold=0 italic=0 charset=&quot;&quot; unicode=1 stretchH=100 smooth=1 aa=2 padding=0,0,0,0 spacing=0,0</td>
      </tr>
      <tr>
        <td id="L2" class="blob-num js-line-number" data-line-number="2"></td>
        <td id="LC2" class="blob-code blob-code-inner js-file-line">common lineHeight=27 base=20 scaleW=1 scaleH=1 pages=1 packed=0 alphaChnl=0 redChnl=0 greenChnl=0 blueChnl=0</td>
      </tr>
      <tr>
        <td id="L3" class="blob-num js-line-number" data-line-number="3"></td>
        <td id="LC3" class="blob-code blob-code-inner js-file-line">page id=0 file=&quot;exo-small/exo-small.png&quot;</td>
      </tr>
      <tr>
        <td id="L4" class="blob-num js-line-number" data-line-number="4"></td>
        <td id="LC4" class="blob-code blob-code-inner js-file-line">chars count=224</td>
      </tr>
      <tr>
        <td id="L5" class="blob-num js-line-number" data-line-number="5"></td>
        <td id="LC5" class="blob-code blob-code-inner js-file-line">char id=32   x=0    y=0    width=0    height=0    xoffset=0    yoffset=0    xadvance=14   page=0    chnl=0</td>
      </tr>
      <tr>
        <td id="L6" class="blob-num js-line-number" data-line-number="6"></td>
        <td id="LC6" class="blob-code blob-code-inner js-file-line">char id=33   x=320  y=2    width=3    height=16   xoffset=6    yoffset=4    xadvance=14   page=0    chnl=0</td>
      </tr>
      <tr>
        <td id="L7" class="blob-num js-line-number" data-line-number="7"></td>
        <td id="LC7" class="blob-code blob-code-inner js-file-line">char id=34   x=2    y=498  width=9    height=9    xoffset=3    yoffset=2    xadvance=14   page=0    chnl=0</td>
      </tr>
      <tr>
        <td id="L8" class="blob-num js-line-number" data-line-number="8"></td>
        <td id="LC8" class="blob-code blob-code-inner js-file-line">char id=35   x=459  y=2    width=14   height=16   xoffset=0    yoffset=4    xadvance=14   page=0    chnl=0</td>
      </tr>
      <tr>
        <td id="L9" class="blob-num js-line-number" data-line-number="9"></td>
        <td id="LC9" class="blob-code blob-code-inner js-file-line">char id=36   x=36   y=71   width=14   height=20   xoffset=0    yoffset=2    xadvance=14   page=0    chnl=0</td>
      </tr>
      <tr>
        <td id="L10" class="blob-num js-line-number" data-line-number="10"></td>
        <td id="LC10" class="blob-code blob-code-inner js-file-line">char id=37   x=330  y=22   width=15   height=17   xoffset=0    yoffset=4    xadvance=14   page=0    chnl=0</td>
      </tr>
      <tr>
        <td id="L11" class="blob-num js-line-number" data-line-number="11"></td>
        <td id="LC11" class="blob-code blob-code-inner js-file-line">char id=38   x=349  y=22   width=14   height=17   xoffset=0    yoffset=4    xadvance=14   page=0    chnl=0</td>
      </tr>
      <tr>
        <td id="L12" class="blob-num js-line-number" data-line-number="12"></td>
        <td id="LC12" class="blob-code blob-code-inner js-file-line">char id=39   x=337  y=2    width=4    height=9    xoffset=5    yoffset=2    xadvance=14   page=0    chnl=0</td>
      </tr>
      <tr>
        <td id="L13" class="blob-num js-line-number" data-line-number="13"></td>
        <td id="LC13" class="blob-code blob-code-inner js-file-line">char id=40   x=21   y=159  width=7    height=23   xoffset=4    yoffset=2    xadvance=14   page=0    chnl=0</td>
      </tr>
      <tr>
        <td id="L14" class="blob-num js-line-number" data-line-number="14"></td>
        <td id="LC14" class="blob-code blob-code-inner js-file-line">char id=41   x=21   y=186  width=8    height=23   xoffset=3    yoffset=2    xadvance=14   page=0    chnl=0</td>
      </tr>
      <tr>
        <td id="L15" class="blob-num js-line-number" data-line-number="15"></td>
        <td id="LC15" class="blob-code blob-code-inner js-file-line">char id=42   x=477  y=8    width=10   height=10   xoffset=2    yoffset=2    xadvance=14   page=0    chnl=0</td>
      </tr>
      <tr>
        <td id="L16" class="blob-num js-line-number" data-line-number="16"></td>
        <td id="LC16" class="blob-code blob-code-inner js-file-line">char id=43   x=425  y=2    width=13   height=12   xoffset=1    yoffset=6    xadvance=14   page=0    chnl=0</td>
      </tr>
      <tr>
        <td id="L17" class="blob-num js-line-number" data-line-number="17"></td>
        <td id="LC17" class="blob-code blob-code-inner js-file-line">char id=44   x=345  y=2    width=6    height=9    xoffset=3    yoffset=16   xadvance=14   page=0    chnl=0</td>
      </tr>
      <tr>
        <td id="L18" class="blob-num js-line-number" data-line-number="18"></td>
        <td id="LC18" class="blob-code blob-code-inner js-file-line">char id=45   x=413  y=2    width=8    height=3    xoffset=3    yoffset=12   xadvance=14   page=0    chnl=0</td>
      </tr>
      <tr>
        <td id="L19" class="blob-num js-line-number" data-line-number="19"></td>
        <td id="LC19" class="blob-code blob-code-inner js-file-line">char id=46   x=327  y=10   width=4    height=4    xoffset=5    yoffset=16   xadvance=14   page=0    chnl=0</td>
      </tr>
      <tr>
        <td id="L20" class="blob-num js-line-number" data-line-number="20"></td>
        <td id="LC20" class="blob-code blob-code-inner js-file-line">char id=47   x=296  y=22   width=13   height=19   xoffset=1    yoffset=2    xadvance=14   page=0    chnl=0</td>
      </tr>
      <tr>
        <td id="L21" class="blob-num js-line-number" data-line-number="21"></td>
        <td id="LC21" class="blob-code blob-code-inner js-file-line">char id=48   x=264  y=22   width=12   height=18   xoffset=1    yoffset=3    xadvance=14   page=0    chnl=0</td>
      </tr>
      <tr>
        <td id="L22" class="blob-num js-line-number" data-line-number="22"></td>
        <td id="LC22" class="blob-code blob-code-inner js-file-line">char id=49   x=270  y=2    width=13   height=16   xoffset=1    yoffset=4    xadvance=14   page=0    chnl=0</td>
      </tr>
      <tr>
        <td id="L23" class="blob-num js-line-number" data-line-number="23"></td>
        <td id="LC23" class="blob-code blob-code-inner js-file-line">char id=50   x=168  y=22   width=12   height=17   xoffset=1    yoffset=3    xadvance=14   page=0    chnl=0</td>
      </tr>
      <tr>
        <td id="L24" class="blob-num js-line-number" data-line-number="24"></td>
        <td id="LC24" class="blob-code blob-code-inner js-file-line">char id=51   x=184  y=22   width=12   height=18   xoffset=1    yoffset=3    xadvance=14   page=0    chnl=0</td>
      </tr>
      <tr>
        <td id="L25" class="blob-num js-line-number" data-line-number="25"></td>
        <td id="LC25" class="blob-code blob-code-inner js-file-line">char id=52   x=287  y=2    width=13   height=16   xoffset=1    yoffset=4    xadvance=14   page=0    chnl=0</td>
      </tr>
      <tr>
        <td id="L26" class="blob-num js-line-number" data-line-number="26"></td>
        <td id="LC26" class="blob-code blob-code-inner js-file-line">char id=53   x=200  y=22   width=12   height=17   xoffset=1    yoffset=4    xadvance=14   page=0    chnl=0</td>
      </tr>
      <tr>
        <td id="L27" class="blob-num js-line-number" data-line-number="27"></td>
        <td id="LC27" class="blob-code blob-code-inner js-file-line">char id=54   x=216  y=22   width=12   height=18   xoffset=1    yoffset=3    xadvance=14   page=0    chnl=0</td>
      </tr>
      <tr>
        <td id="L28" class="blob-num js-line-number" data-line-number="28"></td>
        <td id="LC28" class="blob-code blob-code-inner js-file-line">char id=55   x=304  y=2    width=12   height=16   xoffset=1    yoffset=4    xadvance=14   page=0    chnl=0</td>
      </tr>
      <tr>
        <td id="L29" class="blob-num js-line-number" data-line-number="29"></td>
        <td id="LC29" class="blob-code blob-code-inner js-file-line">char id=56   x=232  y=22   width=12   height=18   xoffset=1    yoffset=3    xadvance=14   page=0    chnl=0</td>
      </tr>
      <tr>
        <td id="L30" class="blob-num js-line-number" data-line-number="30"></td>
        <td id="LC30" class="blob-code blob-code-inner js-file-line">char id=57   x=248  y=22   width=12   height=18   xoffset=1    yoffset=3    xadvance=14   page=0    chnl=0</td>
      </tr>
      <tr>
        <td id="L31" class="blob-num js-line-number" data-line-number="31"></td>
        <td id="LC31" class="blob-code blob-code-inner js-file-line">char id=58   x=355  y=2    width=4    height=13   xoffset=5    yoffset=7    xadvance=14   page=0    chnl=0</td>
      </tr>
      <tr>
        <td id="L32" class="blob-num js-line-number" data-line-number="32"></td>
        <td id="LC32" class="blob-code blob-code-inner js-file-line">char id=59   x=21   y=137  width=6    height=18   xoffset=4    yoffset=7    xadvance=14   page=0    chnl=0</td>
      </tr>
      <tr>
        <td id="L33" class="blob-num js-line-number" data-line-number="33"></td>
        <td id="LC33" class="blob-code blob-code-inner js-file-line">char id=60   x=363  y=2    width=13   height=13   xoffset=1    yoffset=6    xadvance=14   page=0    chnl=0</td>
      </tr>
      <tr>
        <td id="L34" class="blob-num js-line-number" data-line-number="34"></td>
        <td id="LC34" class="blob-code blob-code-inner js-file-line">char id=61   x=442  y=2    width=13   height=8    xoffset=1    yoffset=8    xadvance=14   page=0    chnl=0</td>
      </tr>
      <tr>
        <td id="L35" class="blob-num js-line-number" data-line-number="35"></td>
        <td id="LC35" class="blob-code blob-code-inner js-file-line">char id=62   x=380  y=2    width=13   height=13   xoffset=1    yoffset=6    xadvance=14   page=0    chnl=0</td>
      </tr>
      <tr>
        <td id="L36" class="blob-num js-line-number" data-line-number="36"></td>
        <td id="LC36" class="blob-code blob-code-inner js-file-line">char id=63   x=280  y=22   width=12   height=17   xoffset=1    yoffset=3    xadvance=14   page=0    chnl=0</td>
      </tr>
      <tr>
        <td id="L37" class="blob-num js-line-number" data-line-number="37"></td>
        <td id="LC37" class="blob-code blob-code-inner js-file-line">char id=64   x=36   y=45   width=14   height=22   xoffset=0    yoffset=2    xadvance=14   page=0    chnl=0</td>
      </tr>
      <tr>
        <td id="L38" class="blob-num js-line-number" data-line-number="38"></td>
        <td id="LC38" class="blob-code blob-code-inner js-file-line">char id=65   x=2    y=2    width=15   height=16   xoffset=0    yoffset=4    xadvance=14   page=0    chnl=0</td>
      </tr>
      <tr>
        <td id="L39" class="blob-num js-line-number" data-line-number="39"></td>
        <td id="LC39" class="blob-code blob-code-inner js-file-line">char id=66   x=2    y=22   width=13   height=16   xoffset=1    yoffset=4    xadvance=14   page=0    chnl=0</td>
      </tr>
      <tr>
        <td id="L40" class="blob-num js-line-number" data-line-number="40"></td>
        <td id="LC40" class="blob-code blob-code-inner js-file-line">char id=67   x=2    y=42   width=13   height=18   xoffset=1    yoffset=3    xadvance=14   page=0    chnl=0</td>
      </tr>
      <tr>
        <td id="L41" class="blob-num js-line-number" data-line-number="41"></td>
        <td id="LC41" class="blob-code blob-code-inner js-file-line">char id=68   x=2    y=64   width=13   height=16   xoffset=1    yoffset=4    xadvance=14   page=0    chnl=0</td>
      </tr>
      <tr>
        <td id="L42" class="blob-num js-line-number" data-line-number="42"></td>
        <td id="LC42" class="blob-code blob-code-inner js-file-line">char id=69   x=2    y=84   width=13   height=16   xoffset=1    yoffset=4    xadvance=14   page=0    chnl=0</td>
      </tr>
      <tr>
        <td id="L43" class="blob-num js-line-number" data-line-number="43"></td>
        <td id="LC43" class="blob-code blob-code-inner js-file-line">char id=70   x=2    y=104  width=11   height=16   xoffset=2    yoffset=4    xadvance=14   page=0    chnl=0</td>
      </tr>
      <tr>
        <td id="L44" class="blob-num js-line-number" data-line-number="44"></td>
        <td id="LC44" class="blob-code blob-code-inner js-file-line">char id=71   x=2    y=124  width=12   height=18   xoffset=1    yoffset=3    xadvance=14   page=0    chnl=0</td>
      </tr>
      <tr>
        <td id="L45" class="blob-num js-line-number" data-line-number="45"></td>
        <td id="LC45" class="blob-code blob-code-inner js-file-line">char id=72   x=2    y=146  width=12   height=16   xoffset=1    yoffset=4    xadvance=14   page=0    chnl=0</td>
      </tr>
      <tr>
        <td id="L46" class="blob-num js-line-number" data-line-number="46"></td>
        <td id="LC46" class="blob-code blob-code-inner js-file-line">char id=73   x=2    y=166  width=11   height=16   xoffset=2    yoffset=4    xadvance=14   page=0    chnl=0</td>
      </tr>
      <tr>
        <td id="L47" class="blob-num js-line-number" data-line-number="47"></td>
        <td id="LC47" class="blob-code blob-code-inner js-file-line">char id=74   x=2    y=186  width=10   height=17   xoffset=2    yoffset=4    xadvance=14   page=0    chnl=0</td>
      </tr>
      <tr>
        <td id="L48" class="blob-num js-line-number" data-line-number="48"></td>
        <td id="LC48" class="blob-code blob-code-inner js-file-line">char id=75   x=2    y=207  width=14   height=16   xoffset=1    yoffset=4    xadvance=14   page=0    chnl=0</td>
      </tr>
      <tr>
        <td id="L49" class="blob-num js-line-number" data-line-number="49"></td>
        <td id="LC49" class="blob-code blob-code-inner js-file-line">char id=76   x=2    y=227  width=11   height=16   xoffset=2    yoffset=4    xadvance=14   page=0    chnl=0</td>
      </tr>
      <tr>
        <td id="L50" class="blob-num js-line-number" data-line-number="50"></td>
        <td id="LC50" class="blob-code blob-code-inner js-file-line">char id=77   x=2    y=247  width=12   height=16   xoffset=1    yoffset=4    xadvance=14   page=0    chnl=0</td>
      </tr>
      <tr>
        <td id="L51" class="blob-num js-line-number" data-line-number="51"></td>
        <td id="LC51" class="blob-code blob-code-inner js-file-line">char id=78   x=2    y=267  width=12   height=16   xoffset=1    yoffset=4    xadvance=14   page=0    chnl=0</td>
      </tr>
      <tr>
        <td id="L52" class="blob-num js-line-number" data-line-number="52"></td>
        <td id="LC52" class="blob-code blob-code-inner js-file-line">char id=79   x=2    y=287  width=13   height=18   xoffset=1    yoffset=3    xadvance=14   page=0    chnl=0</td>
      </tr>
      <tr>
        <td id="L53" class="blob-num js-line-number" data-line-number="53"></td>
        <td id="LC53" class="blob-code blob-code-inner js-file-line">char id=80   x=2    y=309  width=13   height=16   xoffset=1    yoffset=4    xadvance=14   page=0    chnl=0</td>
      </tr>
      <tr>
        <td id="L54" class="blob-num js-line-number" data-line-number="54"></td>
        <td id="LC54" class="blob-code blob-code-inner js-file-line">char id=81   x=2    y=329  width=13   height=22   xoffset=1    yoffset=3    xadvance=14   page=0    chnl=0</td>
      </tr>
      <tr>
        <td id="L55" class="blob-num js-line-number" data-line-number="55"></td>
        <td id="LC55" class="blob-code blob-code-inner js-file-line">char id=82   x=2    y=355  width=13   height=16   xoffset=1    yoffset=4    xadvance=14   page=0    chnl=0</td>
      </tr>
      <tr>
        <td id="L56" class="blob-num js-line-number" data-line-number="56"></td>
        <td id="LC56" class="blob-code blob-code-inner js-file-line">char id=83   x=2    y=375  width=14   height=18   xoffset=0    yoffset=3    xadvance=14   page=0    chnl=0</td>
      </tr>
      <tr>
        <td id="L57" class="blob-num js-line-number" data-line-number="57"></td>
        <td id="LC57" class="blob-code blob-code-inner js-file-line">char id=84   x=2    y=397  width=14   height=16   xoffset=0    yoffset=4    xadvance=14   page=0    chnl=0</td>
      </tr>
      <tr>
        <td id="L58" class="blob-num js-line-number" data-line-number="58"></td>
        <td id="LC58" class="blob-code blob-code-inner js-file-line">char id=85   x=2    y=417  width=12   height=17   xoffset=1    yoffset=4    xadvance=14   page=0    chnl=0</td>
      </tr>
      <tr>
        <td id="L59" class="blob-num js-line-number" data-line-number="59"></td>
        <td id="LC59" class="blob-code blob-code-inner js-file-line">char id=86   x=2    y=438  width=15   height=16   xoffset=0    yoffset=4    xadvance=14   page=0    chnl=0</td>
      </tr>
      <tr>
        <td id="L60" class="blob-num js-line-number" data-line-number="60"></td>
        <td id="LC60" class="blob-code blob-code-inner js-file-line">char id=87   x=2    y=458  width=15   height=16   xoffset=0    yoffset=4    xadvance=14   page=0    chnl=0</td>
      </tr>
      <tr>
        <td id="L61" class="blob-num js-line-number" data-line-number="61"></td>
        <td id="LC61" class="blob-code blob-code-inner js-file-line">char id=88   x=2    y=478  width=14   height=16   xoffset=0    yoffset=4    xadvance=14   page=0    chnl=0</td>
      </tr>
      <tr>
        <td id="L62" class="blob-num js-line-number" data-line-number="62"></td>
        <td id="LC62" class="blob-code blob-code-inner js-file-line">char id=89   x=21   y=2    width=14   height=16   xoffset=0    yoffset=4    xadvance=14   page=0    chnl=0</td>
      </tr>
      <tr>
        <td id="L63" class="blob-num js-line-number" data-line-number="63"></td>
        <td id="LC63" class="blob-code blob-code-inner js-file-line">char id=90   x=39   y=2    width=14   height=16   xoffset=0    yoffset=4    xadvance=14   page=0    chnl=0</td>
      </tr>
      <tr>
        <td id="L64" class="blob-num js-line-number" data-line-number="64"></td>
        <td id="LC64" class="blob-code blob-code-inner js-file-line">char id=91   x=21   y=213  width=8    height=23   xoffset=4    yoffset=2    xadvance=14   page=0    chnl=0</td>
      </tr>
      <tr>
        <td id="L65" class="blob-num js-line-number" data-line-number="65"></td>
        <td id="LC65" class="blob-code blob-code-inner js-file-line">char id=92   x=313  y=22   width=13   height=19   xoffset=1    yoffset=2    xadvance=14   page=0    chnl=0</td>
      </tr>
      <tr>
        <td id="L66" class="blob-num js-line-number" data-line-number="66"></td>
        <td id="LC66" class="blob-code blob-code-inner js-file-line">char id=93   x=21   y=240  width=7    height=23   xoffset=3    yoffset=2    xadvance=14   page=0    chnl=0</td>
      </tr>
      <tr>
        <td id="L67" class="blob-num js-line-number" data-line-number="67"></td>
        <td id="LC67" class="blob-code blob-code-inner js-file-line">char id=94   x=397  y=2    width=12   height=11   xoffset=1    yoffset=4    xadvance=14   page=0    chnl=0</td>
      </tr>
      <tr>
        <td id="L68" class="blob-num js-line-number" data-line-number="68"></td>
        <td id="LC68" class="blob-code blob-code-inner js-file-line">char id=95   x=477  y=2    width=16   height=2    xoffset=-1   yoffset=21   xadvance=14   page=0    chnl=0</td>
      </tr>
      <tr>
        <td id="L69" class="blob-num js-line-number" data-line-number="69"></td>
        <td id="LC69" class="blob-code blob-code-inner js-file-line">char id=96   x=327  y=2    width=6    height=4    xoffset=4    yoffset=2    xadvance=14   page=0    chnl=0</td>
      </tr>
      <tr>
        <td id="L70" class="blob-num js-line-number" data-line-number="70"></td>
        <td id="LC70" class="blob-code blob-code-inner js-file-line">char id=97   x=57   y=2    width=13   height=14   xoffset=1    yoffset=7    xadvance=14   page=0    chnl=0</td>
      </tr>
      <tr>
        <td id="L71" class="blob-num js-line-number" data-line-number="71"></td>
        <td id="LC71" class="blob-code blob-code-inner js-file-line">char id=98   x=21   y=22   width=11   height=19   xoffset=2    yoffset=2    xadvance=14   page=0    chnl=0</td>
      </tr>
      <tr>
        <td id="L72" class="blob-num js-line-number" data-line-number="72"></td>
        <td id="LC72" class="blob-code blob-code-inner js-file-line">char id=99   x=74   y=2    width=12   height=14   xoffset=1    yoffset=7    xadvance=14   page=0    chnl=0</td>
      </tr>
      <tr>
        <td id="L73" class="blob-num js-line-number" data-line-number="73"></td>
        <td id="LC73" class="blob-code blob-code-inner js-file-line">char id=100  x=36   y=22   width=12   height=19   xoffset=1    yoffset=2    xadvance=14   page=0    chnl=0</td>
      </tr>
      <tr>
        <td id="L74" class="blob-num js-line-number" data-line-number="74"></td>
        <td id="LC74" class="blob-code blob-code-inner js-file-line">char id=101  x=90   y=2    width=12   height=14   xoffset=1    yoffset=7    xadvance=14   page=0    chnl=0</td>
      </tr>
      <tr>
        <td id="L75" class="blob-num js-line-number" data-line-number="75"></td>
        <td id="LC75" class="blob-code blob-code-inner js-file-line">char id=102  x=52   y=22   width=12   height=18   xoffset=1    yoffset=2    xadvance=14   page=0    chnl=0</td>
      </tr>
      <tr>
        <td id="L76" class="blob-num js-line-number" data-line-number="76"></td>
        <td id="LC76" class="blob-code blob-code-inner js-file-line">char id=103  x=68   y=22   width=12   height=18   xoffset=1    yoffset=7    xadvance=14   page=0    chnl=0</td>
      </tr>
      <tr>
        <td id="L77" class="blob-num js-line-number" data-line-number="77"></td>
        <td id="LC77" class="blob-code blob-code-inner js-file-line">char id=104  x=21   y=45   width=11   height=18   xoffset=2    yoffset=2    xadvance=14   page=0    chnl=0</td>
      </tr>
      <tr>
        <td id="L78" class="blob-num js-line-number" data-line-number="78"></td>
        <td id="LC78" class="blob-code blob-code-inner js-file-line">char id=105  x=84   y=22   width=13   height=18   xoffset=1    yoffset=2    xadvance=14   page=0    chnl=0</td>
      </tr>
      <tr>
        <td id="L79" class="blob-num js-line-number" data-line-number="79"></td>
        <td id="LC79" class="blob-code blob-code-inner js-file-line">char id=106  x=21   y=67   width=9    height=23   xoffset=1    yoffset=2    xadvance=14   page=0    chnl=0</td>
      </tr>
      <tr>
        <td id="L80" class="blob-num js-line-number" data-line-number="80"></td>
        <td id="LC80" class="blob-code blob-code-inner js-file-line">char id=107  x=101  y=22   width=12   height=18   xoffset=2    yoffset=2    xadvance=14   page=0    chnl=0</td>
      </tr>
      <tr>
        <td id="L81" class="blob-num js-line-number" data-line-number="81"></td>
        <td id="LC81" class="blob-code blob-code-inner js-file-line">char id=108  x=117  y=22   width=13   height=18   xoffset=1    yoffset=2    xadvance=14   page=0    chnl=0</td>
      </tr>
      <tr>
        <td id="L82" class="blob-num js-line-number" data-line-number="82"></td>
        <td id="LC82" class="blob-code blob-code-inner js-file-line">char id=109  x=106  y=2    width=13   height=13   xoffset=1    yoffset=7    xadvance=14   page=0    chnl=0</td>
      </tr>
      <tr>
        <td id="L83" class="blob-num js-line-number" data-line-number="83"></td>
        <td id="LC83" class="blob-code blob-code-inner js-file-line">char id=110  x=123  y=2    width=11   height=13   xoffset=2    yoffset=7    xadvance=14   page=0    chnl=0</td>
      </tr>
      <tr>
        <td id="L84" class="blob-num js-line-number" data-line-number="84"></td>
        <td id="LC84" class="blob-code blob-code-inner js-file-line">char id=111  x=138  y=2    width=12   height=14   xoffset=1    yoffset=7    xadvance=14   page=0    chnl=0</td>
      </tr>
      <tr>
        <td id="L85" class="blob-num js-line-number" data-line-number="85"></td>
        <td id="LC85" class="blob-code blob-code-inner js-file-line">char id=112  x=21   y=94   width=11   height=18   xoffset=2    yoffset=7    xadvance=14   page=0    chnl=0</td>
      </tr>
      <tr>
        <td id="L86" class="blob-num js-line-number" data-line-number="86"></td>
        <td id="LC86" class="blob-code blob-code-inner js-file-line">char id=113  x=134  y=22   width=12   height=18   xoffset=1    yoffset=7    xadvance=14   page=0    chnl=0</td>
      </tr>
      <tr>
        <td id="L87" class="blob-num js-line-number" data-line-number="87"></td>
        <td id="LC87" class="blob-code blob-code-inner js-file-line">char id=114  x=154  y=2    width=11   height=13   xoffset=2    yoffset=7    xadvance=14   page=0    chnl=0</td>
      </tr>
      <tr>
        <td id="L88" class="blob-num js-line-number" data-line-number="88"></td>
        <td id="LC88" class="blob-code blob-code-inner js-file-line">char id=115  x=169  y=2    width=12   height=14   xoffset=1    yoffset=7    xadvance=14   page=0    chnl=0</td>
      </tr>
      <tr>
        <td id="L89" class="blob-num js-line-number" data-line-number="89"></td>
        <td id="LC89" class="blob-code blob-code-inner js-file-line">char id=116  x=21   y=116  width=10   height=17   xoffset=2    yoffset=4    xadvance=14   page=0    chnl=0</td>
      </tr>
      <tr>
        <td id="L90" class="blob-num js-line-number" data-line-number="90"></td>
        <td id="LC90" class="blob-code blob-code-inner js-file-line">char id=117  x=185  y=2    width=11   height=14   xoffset=2    yoffset=7    xadvance=14   page=0    chnl=0</td>
      </tr>
      <tr>
        <td id="L91" class="blob-num js-line-number" data-line-number="91"></td>
        <td id="LC91" class="blob-code blob-code-inner js-file-line">char id=118  x=200  y=2    width=14   height=13   xoffset=0    yoffset=7    xadvance=14   page=0    chnl=0</td>
      </tr>
      <tr>
        <td id="L92" class="blob-num js-line-number" data-line-number="92"></td>
        <td id="LC92" class="blob-code blob-code-inner js-file-line">char id=119  x=218  y=2    width=15   height=13   xoffset=0    yoffset=7    xadvance=14   page=0    chnl=0</td>
      </tr>
      <tr>
        <td id="L93" class="blob-num js-line-number" data-line-number="93"></td>
        <td id="LC93" class="blob-code blob-code-inner js-file-line">char id=120  x=237  y=2    width=13   height=13   xoffset=1    yoffset=7    xadvance=14   page=0    chnl=0</td>
      </tr>
      <tr>
        <td id="L94" class="blob-num js-line-number" data-line-number="94"></td>
        <td id="LC94" class="blob-code blob-code-inner js-file-line">char id=121  x=150  y=22   width=14   height=18   xoffset=0    yoffset=7    xadvance=14   page=0    chnl=0</td>
      </tr>
      <tr>
        <td id="L95" class="blob-num js-line-number" data-line-number="95"></td>
        <td id="LC95" class="blob-code blob-code-inner js-file-line">char id=122  x=254  y=2    width=12   height=13   xoffset=1    yoffset=7    xadvance=14   page=0    chnl=0</td>
      </tr>
      <tr>
        <td id="L96" class="blob-num js-line-number" data-line-number="96"></td>
        <td id="LC96" class="blob-code blob-code-inner js-file-line">char id=123  x=21   y=267  width=11   height=23   xoffset=2    yoffset=2    xadvance=14   page=0    chnl=0</td>
      </tr>
      <tr>
        <td id="L97" class="blob-num js-line-number" data-line-number="97"></td>
        <td id="LC97" class="blob-code blob-code-inner js-file-line">char id=124  x=21   y=321  width=3    height=23   xoffset=6    yoffset=2    xadvance=14   page=0    chnl=0</td>
      </tr>
      <tr>
        <td id="L98" class="blob-num js-line-number" data-line-number="98"></td>
        <td id="LC98" class="blob-code blob-code-inner js-file-line">char id=125  x=21   y=294  width=11   height=23   xoffset=1    yoffset=2    xadvance=14   page=0    chnl=0</td>
      </tr>
      <tr>
        <td id="L99" class="blob-num js-line-number" data-line-number="99"></td>
        <td id="LC99" class="blob-code blob-code-inner js-file-line">char id=126  x=442  y=14   width=13   height=4    xoffset=1    yoffset=10   xadvance=14   page=0    chnl=0</td>
      </tr>
      <tr>
        <td id="L100" class="blob-num js-line-number" data-line-number="100"></td>
        <td id="LC100" class="blob-code blob-code-inner js-file-line">char id=127  x=497  y=2    width=10   height=9    xoffset=1    yoffset=11   xadvance=14   page=0    chnl=0</td>
      </tr>
      <tr>
        <td id="L101" class="blob-num js-line-number" data-line-number="101"></td>
        <td id="LC101" class="blob-code blob-code-inner js-file-line">char id=128  x=21   y=348  width=10   height=9    xoffset=1    yoffset=11   xadvance=14   page=0    chnl=0</td>
      </tr>
      <tr>
        <td id="L102" class="blob-num js-line-number" data-line-number="102"></td>
        <td id="LC102" class="blob-code blob-code-inner js-file-line">char id=129  x=21   y=361  width=10   height=9    xoffset=1    yoffset=11   xadvance=14   page=0    chnl=0</td>
      </tr>
      <tr>
        <td id="L103" class="blob-num js-line-number" data-line-number="103"></td>
        <td id="LC103" class="blob-code blob-code-inner js-file-line">char id=130  x=21   y=374  width=10   height=9    xoffset=1    yoffset=11   xadvance=14   page=0    chnl=0</td>
      </tr>
      <tr>
        <td id="L104" class="blob-num js-line-number" data-line-number="104"></td>
        <td id="LC104" class="blob-code blob-code-inner js-file-line">char id=131  x=21   y=387  width=10   height=9    xoffset=1    yoffset=11   xadvance=14   page=0    chnl=0</td>
      </tr>
      <tr>
        <td id="L105" class="blob-num js-line-number" data-line-number="105"></td>
        <td id="LC105" class="blob-code blob-code-inner js-file-line">char id=132  x=21   y=400  width=10   height=9    xoffset=1    yoffset=11   xadvance=14   page=0    chnl=0</td>
      </tr>
      <tr>
        <td id="L106" class="blob-num js-line-number" data-line-number="106"></td>
        <td id="LC106" class="blob-code blob-code-inner js-file-line">char id=133  x=21   y=413  width=10   height=9    xoffset=1    yoffset=11   xadvance=14   page=0    chnl=0</td>
      </tr>
      <tr>
        <td id="L107" class="blob-num js-line-number" data-line-number="107"></td>
        <td id="LC107" class="blob-code blob-code-inner js-file-line">char id=134  x=21   y=426  width=10   height=9    xoffset=1    yoffset=11   xadvance=14   page=0    chnl=0</td>
      </tr>
      <tr>
        <td id="L108" class="blob-num js-line-number" data-line-number="108"></td>
        <td id="LC108" class="blob-code blob-code-inner js-file-line">char id=135  x=21   y=439  width=10   height=9    xoffset=1    yoffset=11   xadvance=14   page=0    chnl=0</td>
      </tr>
      <tr>
        <td id="L109" class="blob-num js-line-number" data-line-number="109"></td>
        <td id="LC109" class="blob-code blob-code-inner js-file-line">char id=136  x=21   y=452  width=10   height=9    xoffset=1    yoffset=11   xadvance=14   page=0    chnl=0</td>
      </tr>
      <tr>
        <td id="L110" class="blob-num js-line-number" data-line-number="110"></td>
        <td id="LC110" class="blob-code blob-code-inner js-file-line">char id=137  x=21   y=465  width=10   height=9    xoffset=1    yoffset=11   xadvance=14   page=0    chnl=0</td>
      </tr>
      <tr>
        <td id="L111" class="blob-num js-line-number" data-line-number="111"></td>
        <td id="LC111" class="blob-code blob-code-inner js-file-line">char id=138  x=21   y=478  width=10   height=9    xoffset=1    yoffset=11   xadvance=14   page=0    chnl=0</td>
      </tr>
      <tr>
        <td id="L112" class="blob-num js-line-number" data-line-number="112"></td>
        <td id="LC112" class="blob-code blob-code-inner js-file-line">char id=139  x=21   y=491  width=10   height=9    xoffset=1    yoffset=11   xadvance=14   page=0    chnl=0</td>
      </tr>
      <tr>
        <td id="L113" class="blob-num js-line-number" data-line-number="113"></td>
        <td id="LC113" class="blob-code blob-code-inner js-file-line">char id=140  x=367  y=22   width=10   height=9    xoffset=1    yoffset=11   xadvance=14   page=0    chnl=0</td>
      </tr>
      <tr>
        <td id="L114" class="blob-num js-line-number" data-line-number="114"></td>
        <td id="LC114" class="blob-code blob-code-inner js-file-line">char id=141  x=381  y=22   width=10   height=9    xoffset=1    yoffset=11   xadvance=14   page=0    chnl=0</td>
      </tr>
      <tr>
        <td id="L115" class="blob-num js-line-number" data-line-number="115"></td>
        <td id="LC115" class="blob-code blob-code-inner js-file-line">char id=142  x=395  y=22   width=10   height=9    xoffset=1    yoffset=11   xadvance=14   page=0    chnl=0</td>
      </tr>
      <tr>
        <td id="L116" class="blob-num js-line-number" data-line-number="116"></td>
        <td id="LC116" class="blob-code blob-code-inner js-file-line">char id=143  x=409  y=22   width=10   height=9    xoffset=1    yoffset=11   xadvance=14   page=0    chnl=0</td>
      </tr>
      <tr>
        <td id="L117" class="blob-num js-line-number" data-line-number="117"></td>
        <td id="LC117" class="blob-code blob-code-inner js-file-line">char id=144  x=423  y=22   width=10   height=9    xoffset=1    yoffset=11   xadvance=14   page=0    chnl=0</td>
      </tr>
      <tr>
        <td id="L118" class="blob-num js-line-number" data-line-number="118"></td>
        <td id="LC118" class="blob-code blob-code-inner js-file-line">char id=145  x=437  y=22   width=10   height=9    xoffset=1    yoffset=11   xadvance=14   page=0    chnl=0</td>
      </tr>
      <tr>
        <td id="L119" class="blob-num js-line-number" data-line-number="119"></td>
        <td id="LC119" class="blob-code blob-code-inner js-file-line">char id=146  x=451  y=22   width=10   height=9    xoffset=1    yoffset=11   xadvance=14   page=0    chnl=0</td>
      </tr>
      <tr>
        <td id="L120" class="blob-num js-line-number" data-line-number="120"></td>
        <td id="LC120" class="blob-code blob-code-inner js-file-line">char id=147  x=465  y=22   width=10   height=9    xoffset=1    yoffset=11   xadvance=14   page=0    chnl=0</td>
      </tr>
      <tr>
        <td id="L121" class="blob-num js-line-number" data-line-number="121"></td>
        <td id="LC121" class="blob-code blob-code-inner js-file-line">char id=148  x=479  y=22   width=10   height=9    xoffset=1    yoffset=11   xadvance=14   page=0    chnl=0</td>
      </tr>
      <tr>
        <td id="L122" class="blob-num js-line-number" data-line-number="122"></td>
        <td id="LC122" class="blob-code blob-code-inner js-file-line">char id=149  x=493  y=22   width=10   height=9    xoffset=1    yoffset=11   xadvance=14   page=0    chnl=0</td>
      </tr>
      <tr>
        <td id="L123" class="blob-num js-line-number" data-line-number="123"></td>
        <td id="LC123" class="blob-code blob-code-inner js-file-line">char id=150  x=36   y=95   width=10   height=9    xoffset=1    yoffset=11   xadvance=14   page=0    chnl=0</td>
      </tr>
      <tr>
        <td id="L124" class="blob-num js-line-number" data-line-number="124"></td>
        <td id="LC124" class="blob-code blob-code-inner js-file-line">char id=151  x=36   y=108  width=10   height=9    xoffset=1    yoffset=11   xadvance=14   page=0    chnl=0</td>
      </tr>
      <tr>
        <td id="L125" class="blob-num js-line-number" data-line-number="125"></td>
        <td id="LC125" class="blob-code blob-code-inner js-file-line">char id=152  x=36   y=121  width=10   height=9    xoffset=1    yoffset=11   xadvance=14   page=0    chnl=0</td>
      </tr>
      <tr>
        <td id="L126" class="blob-num js-line-number" data-line-number="126"></td>
        <td id="LC126" class="blob-code blob-code-inner js-file-line">char id=153  x=36   y=134  width=10   height=9    xoffset=1    yoffset=11   xadvance=14   page=0    chnl=0</td>
      </tr>
      <tr>
        <td id="L127" class="blob-num js-line-number" data-line-number="127"></td>
        <td id="LC127" class="blob-code blob-code-inner js-file-line">char id=154  x=36   y=147  width=10   height=9    xoffset=1    yoffset=11   xadvance=14   page=0    chnl=0</td>
      </tr>
      <tr>
        <td id="L128" class="blob-num js-line-number" data-line-number="128"></td>
        <td id="LC128" class="blob-code blob-code-inner js-file-line">char id=155  x=36   y=160  width=10   height=9    xoffset=1    yoffset=11   xadvance=14   page=0    chnl=0</td>
      </tr>
      <tr>
        <td id="L129" class="blob-num js-line-number" data-line-number="129"></td>
        <td id="LC129" class="blob-code blob-code-inner js-file-line">char id=156  x=36   y=173  width=10   height=9    xoffset=1    yoffset=11   xadvance=14   page=0    chnl=0</td>
      </tr>
      <tr>
        <td id="L130" class="blob-num js-line-number" data-line-number="130"></td>
        <td id="LC130" class="blob-code blob-code-inner js-file-line">char id=157  x=36   y=186  width=10   height=9    xoffset=1    yoffset=11   xadvance=14   page=0    chnl=0</td>
      </tr>
      <tr>
        <td id="L131" class="blob-num js-line-number" data-line-number="131"></td>
        <td id="LC131" class="blob-code blob-code-inner js-file-line">char id=158  x=36   y=199  width=10   height=9    xoffset=1    yoffset=11   xadvance=14   page=0    chnl=0</td>
      </tr>
      <tr>
        <td id="L132" class="blob-num js-line-number" data-line-number="132"></td>
        <td id="LC132" class="blob-code blob-code-inner js-file-line">char id=159  x=36   y=212  width=10   height=9    xoffset=1    yoffset=11   xadvance=14   page=0    chnl=0</td>
      </tr>
      <tr>
        <td id="L133" class="blob-num js-line-number" data-line-number="133"></td>
        <td id="LC133" class="blob-code blob-code-inner js-file-line">char id=160  x=17   y=104  width=0    height=0    xoffset=0    yoffset=20   xadvance=14   page=0    chnl=0</td>
      </tr>
      <tr>
        <td id="L134" class="blob-num js-line-number" data-line-number="134"></td>
        <td id="LC134" class="blob-code blob-code-inner js-file-line">char id=161  x=28   y=321  width=3    height=17   xoffset=6    yoffset=7    xadvance=14   page=0    chnl=0</td>
      </tr>
      <tr>
        <td id="L135" class="blob-num js-line-number" data-line-number="135"></td>
        <td id="LC135" class="blob-code blob-code-inner js-file-line">char id=162  x=36   y=225  width=12   height=18   xoffset=1    yoffset=3    xadvance=14   page=0    chnl=0</td>
      </tr>
      <tr>
        <td id="L136" class="blob-num js-line-number" data-line-number="136"></td>
        <td id="LC136" class="blob-code blob-code-inner js-file-line">char id=163  x=36   y=247  width=14   height=17   xoffset=0    yoffset=3    xadvance=14   page=0    chnl=0</td>
      </tr>
      <tr>
        <td id="L137" class="blob-num js-line-number" data-line-number="137"></td>
        <td id="LC137" class="blob-code blob-code-inner js-file-line">char id=164  x=36   y=268  width=12   height=12   xoffset=1    yoffset=6    xadvance=14   page=0    chnl=0</td>
      </tr>
      <tr>
        <td id="L138" class="blob-num js-line-number" data-line-number="138"></td>
        <td id="LC138" class="blob-code blob-code-inner js-file-line">char id=165  x=36   y=284  width=14   height=16   xoffset=0    yoffset=4    xadvance=14   page=0    chnl=0</td>
      </tr>
      <tr>
        <td id="L139" class="blob-num js-line-number" data-line-number="139"></td>
        <td id="LC139" class="blob-code blob-code-inner js-file-line">char id=166  x=36   y=304  width=3    height=24   xoffset=6    yoffset=2    xadvance=14   page=0    chnl=0</td>
      </tr>
      <tr>
        <td id="L140" class="blob-num js-line-number" data-line-number="140"></td>
        <td id="LC140" class="blob-code blob-code-inner js-file-line">char id=167  x=36   y=332  width=12   height=21   xoffset=1    yoffset=2    xadvance=14   page=0    chnl=0</td>
      </tr>
      <tr>
        <td id="L141" class="blob-num js-line-number" data-line-number="141"></td>
        <td id="LC141" class="blob-code blob-code-inner js-file-line">char id=168  x=413  y=9    width=8    height=3    xoffset=3    yoffset=3    xadvance=14   page=0    chnl=0</td>
      </tr>
      <tr>
        <td id="L142" class="blob-num js-line-number" data-line-number="142"></td>
        <td id="LC142" class="blob-code blob-code-inner js-file-line">char id=169  x=54   y=45   width=15   height=18   xoffset=0    yoffset=2    xadvance=14   page=0    chnl=0</td>
      </tr>
      <tr>
        <td id="L143" class="blob-num js-line-number" data-line-number="143"></td>
        <td id="LC143" class="blob-code blob-code-inner js-file-line">char id=170  x=36   y=357  width=10   height=10   xoffset=2    yoffset=3    xadvance=14   page=0    chnl=0</td>
      </tr>
      <tr>
        <td id="L144" class="blob-num js-line-number" data-line-number="144"></td>
        <td id="LC144" class="blob-code blob-code-inner js-file-line">char id=171  x=36   y=371  width=13   height=11   xoffset=1    yoffset=8    xadvance=14   page=0    chnl=0</td>
      </tr>
      <tr>
        <td id="L145" class="blob-num js-line-number" data-line-number="145"></td>
        <td id="LC145" class="blob-code blob-code-inner js-file-line">char id=172  x=36   y=386  width=13   height=7    xoffset=1    yoffset=11   xadvance=14   page=0    chnl=0</td>
      </tr>
      <tr>
        <td id="L146" class="blob-num js-line-number" data-line-number="146"></td>
        <td id="LC146" class="blob-code blob-code-inner js-file-line">char id=173  x=497  y=15   width=8    height=3    xoffset=3    yoffset=12   xadvance=14   page=0    chnl=0</td>
      </tr>
      <tr>
        <td id="L147" class="blob-num js-line-number" data-line-number="147"></td>
        <td id="LC147" class="blob-code blob-code-inner js-file-line">char id=174  x=73   y=45   width=15   height=18   xoffset=0    yoffset=2    xadvance=14   page=0    chnl=0</td>
      </tr>
      <tr>
        <td id="L148" class="blob-num js-line-number" data-line-number="148"></td>
        <td id="LC148" class="blob-code blob-code-inner js-file-line">char id=175  x=493  y=35   width=16   height=2    xoffset=-1   yoffset=1    xadvance=14   page=0    chnl=0</td>
      </tr>
      <tr>
        <td id="L149" class="blob-num js-line-number" data-line-number="149"></td>
        <td id="LC149" class="blob-code blob-code-inner js-file-line">char id=176  x=36   y=397  width=8    height=8    xoffset=3    yoffset=3    xadvance=14   page=0    chnl=0</td>
      </tr>
      <tr>
        <td id="L150" class="blob-num js-line-number" data-line-number="150"></td>
        <td id="LC150" class="blob-code blob-code-inner js-file-line">char id=177  x=36   y=409  width=13   height=15   xoffset=1    yoffset=5    xadvance=14   page=0    chnl=0</td>
      </tr>
      <tr>
        <td id="L151" class="blob-num js-line-number" data-line-number="151"></td>
        <td id="LC151" class="blob-code blob-code-inner js-file-line">char id=178  x=36   y=428  width=8    height=11   xoffset=3    yoffset=3    xadvance=14   page=0    chnl=0</td>
      </tr>
      <tr>
        <td id="L152" class="blob-num js-line-number" data-line-number="152"></td>
        <td id="LC152" class="blob-code blob-code-inner js-file-line">char id=179  x=36   y=443  width=8    height=11   xoffset=3    yoffset=3    xadvance=14   page=0    chnl=0</td>
      </tr>
      <tr>
        <td id="L153" class="blob-num js-line-number" data-line-number="153"></td>
        <td id="LC153" class="blob-code blob-code-inner js-file-line">char id=180  x=21   y=504  width=6    height=4    xoffset=4    yoffset=2    xadvance=14   page=0    chnl=0</td>
      </tr>
      <tr>
        <td id="L154" class="blob-num js-line-number" data-line-number="154"></td>
        <td id="LC154" class="blob-code blob-code-inner js-file-line">char id=181  x=36   y=458  width=12   height=18   xoffset=1    yoffset=7    xadvance=14   page=0    chnl=0</td>
      </tr>
      <tr>
        <td id="L155" class="blob-num js-line-number" data-line-number="155"></td>
        <td id="LC155" class="blob-code blob-code-inner js-file-line">char id=182  x=36   y=480  width=12   height=20   xoffset=1    yoffset=4    xadvance=14   page=0    chnl=0</td>
      </tr>
      <tr>
        <td id="L156" class="blob-num js-line-number" data-line-number="156"></td>
        <td id="LC156" class="blob-code blob-code-inner js-file-line">char id=183  x=367  y=35   width=4    height=5    xoffset=5    yoffset=11   xadvance=14   page=0    chnl=0</td>
      </tr>
      <tr>
        <td id="L157" class="blob-num js-line-number" data-line-number="157"></td>
        <td id="LC157" class="blob-code blob-code-inner js-file-line">char id=184  x=381  y=35   width=5    height=6    xoffset=1    yoffset=20   xadvance=14   page=0    chnl=0</td>
      </tr>
      <tr>
        <td id="L158" class="blob-num js-line-number" data-line-number="158"></td>
        <td id="LC158" class="blob-code blob-code-inner js-file-line">char id=185  x=92   y=45   width=8    height=11   xoffset=3    yoffset=3    xadvance=14   page=0    chnl=0</td>
      </tr>
      <tr>
        <td id="L159" class="blob-num js-line-number" data-line-number="159"></td>
        <td id="LC159" class="blob-code blob-code-inner js-file-line">char id=186  x=104  y=45   width=10   height=10   xoffset=2    yoffset=3    xadvance=14   page=0    chnl=0</td>
      </tr>
      <tr>
        <td id="L160" class="blob-num js-line-number" data-line-number="160"></td>
        <td id="LC160" class="blob-code blob-code-inner js-file-line">char id=187  x=118  y=45   width=12   height=11   xoffset=1    yoffset=8    xadvance=14   page=0    chnl=0</td>
      </tr>
      <tr>
        <td id="L161" class="blob-num js-line-number" data-line-number="161"></td>
        <td id="LC161" class="blob-code blob-code-inner js-file-line">char id=188  x=134  y=45   width=15   height=17   xoffset=0    yoffset=4    xadvance=14   page=0    chnl=0</td>
      </tr>
      <tr>
        <td id="L162" class="blob-num js-line-number" data-line-number="162"></td>
        <td id="LC162" class="blob-code blob-code-inner js-file-line">char id=189  x=153  y=45   width=15   height=17   xoffset=0    yoffset=4    xadvance=14   page=0    chnl=0</td>
      </tr>
      <tr>
        <td id="L163" class="blob-num js-line-number" data-line-number="163"></td>
        <td id="LC163" class="blob-code blob-code-inner js-file-line">char id=190  x=172  y=45   width=16   height=17   xoffset=-1   yoffset=4    xadvance=14   page=0    chnl=0</td>
      </tr>
      <tr>
        <td id="L164" class="blob-num js-line-number" data-line-number="164"></td>
        <td id="LC164" class="blob-code blob-code-inner js-file-line">char id=191  x=192  y=45   width=13   height=17   xoffset=1    yoffset=7    xadvance=14   page=0    chnl=0</td>
      </tr>
      <tr>
        <td id="L165" class="blob-num js-line-number" data-line-number="165"></td>
        <td id="LC165" class="blob-code blob-code-inner js-file-line">char id=192  x=54   y=67   width=15   height=21   xoffset=0    yoffset=-1   xadvance=14   page=0    chnl=0</td>
      </tr>
      <tr>
        <td id="L166" class="blob-num js-line-number" data-line-number="166"></td>
        <td id="LC166" class="blob-code blob-code-inner js-file-line">char id=193  x=54   y=92   width=15   height=21   xoffset=0    yoffset=-1   xadvance=14   page=0    chnl=0</td>
      </tr>
      <tr>
        <td id="L167" class="blob-num js-line-number" data-line-number="167"></td>
        <td id="LC167" class="blob-code blob-code-inner js-file-line">char id=194  x=54   y=117  width=15   height=21   xoffset=0    yoffset=-1   xadvance=14   page=0    chnl=0</td>
      </tr>
      <tr>
        <td id="L168" class="blob-num js-line-number" data-line-number="168"></td>
        <td id="LC168" class="blob-code blob-code-inner js-file-line">char id=195  x=54   y=142  width=15   height=20   xoffset=0    yoffset=0    xadvance=14   page=0    chnl=0</td>
      </tr>
      <tr>
        <td id="L169" class="blob-num js-line-number" data-line-number="169"></td>
        <td id="LC169" class="blob-code blob-code-inner js-file-line">char id=196  x=54   y=166  width=15   height=20   xoffset=0    yoffset=0    xadvance=14   page=0    chnl=0</td>
      </tr>
      <tr>
        <td id="L170" class="blob-num js-line-number" data-line-number="170"></td>
        <td id="LC170" class="blob-code blob-code-inner js-file-line">char id=197  x=54   y=190  width=15   height=20   xoffset=0    yoffset=0    xadvance=14   page=0    chnl=0</td>
      </tr>
      <tr>
        <td id="L171" class="blob-num js-line-number" data-line-number="171"></td>
        <td id="LC171" class="blob-code blob-code-inner js-file-line">char id=198  x=209  y=45   width=14   height=16   xoffset=0    yoffset=4    xadvance=14   page=0    chnl=0</td>
      </tr>
      <tr>
        <td id="L172" class="blob-num js-line-number" data-line-number="172"></td>
        <td id="LC172" class="blob-code blob-code-inner js-file-line">char id=199  x=54   y=214  width=13   height=23   xoffset=1    yoffset=3    xadvance=14   page=0    chnl=0</td>
      </tr>
      <tr>
        <td id="L173" class="blob-num js-line-number" data-line-number="173"></td>
        <td id="LC173" class="blob-code blob-code-inner js-file-line">char id=200  x=54   y=241  width=13   height=21   xoffset=1    yoffset=-1   xadvance=14   page=0    chnl=0</td>
      </tr>
      <tr>
        <td id="L174" class="blob-num js-line-number" data-line-number="174"></td>
        <td id="LC174" class="blob-code blob-code-inner js-file-line">char id=201  x=54   y=266  width=13   height=21   xoffset=1    yoffset=-1   xadvance=14   page=0    chnl=0</td>
      </tr>
      <tr>
        <td id="L175" class="blob-num js-line-number" data-line-number="175"></td>
        <td id="LC175" class="blob-code blob-code-inner js-file-line">char id=202  x=54   y=291  width=13   height=21   xoffset=1    yoffset=-1   xadvance=14   page=0    chnl=0</td>
      </tr>
      <tr>
        <td id="L176" class="blob-num js-line-number" data-line-number="176"></td>
        <td id="LC176" class="blob-code blob-code-inner js-file-line">char id=203  x=54   y=316  width=13   height=20   xoffset=1    yoffset=0    xadvance=14   page=0    chnl=0</td>
      </tr>
      <tr>
        <td id="L177" class="blob-num js-line-number" data-line-number="177"></td>
        <td id="LC177" class="blob-code blob-code-inner js-file-line">char id=204  x=54   y=340  width=11   height=21   xoffset=2    yoffset=-1   xadvance=14   page=0    chnl=0</td>
      </tr>
      <tr>
        <td id="L178" class="blob-num js-line-number" data-line-number="178"></td>
        <td id="LC178" class="blob-code blob-code-inner js-file-line">char id=205  x=54   y=365  width=11   height=21   xoffset=2    yoffset=-1   xadvance=14   page=0    chnl=0</td>
      </tr>
      <tr>
        <td id="L179" class="blob-num js-line-number" data-line-number="179"></td>
        <td id="LC179" class="blob-code blob-code-inner js-file-line">char id=206  x=54   y=390  width=11   height=21   xoffset=2    yoffset=-1   xadvance=14   page=0    chnl=0</td>
      </tr>
      <tr>
        <td id="L180" class="blob-num js-line-number" data-line-number="180"></td>
        <td id="LC180" class="blob-code blob-code-inner js-file-line">char id=207  x=54   y=415  width=11   height=20   xoffset=2    yoffset=0    xadvance=14   page=0    chnl=0</td>
      </tr>
      <tr>
        <td id="L181" class="blob-num js-line-number" data-line-number="181"></td>
        <td id="LC181" class="blob-code blob-code-inner js-file-line">char id=208  x=227  y=45   width=14   height=16   xoffset=0    yoffset=4    xadvance=14   page=0    chnl=0</td>
      </tr>
      <tr>
        <td id="L182" class="blob-num js-line-number" data-line-number="182"></td>
        <td id="LC182" class="blob-code blob-code-inner js-file-line">char id=209  x=54   y=439  width=12   height=20   xoffset=1    yoffset=0    xadvance=14   page=0    chnl=0</td>
      </tr>
      <tr>
        <td id="L183" class="blob-num js-line-number" data-line-number="183"></td>
        <td id="LC183" class="blob-code blob-code-inner js-file-line">char id=210  x=54   y=463  width=13   height=22   xoffset=1    yoffset=-1   xadvance=14   page=0    chnl=0</td>
      </tr>
      <tr>
        <td id="L184" class="blob-num js-line-number" data-line-number="184"></td>
        <td id="LC184" class="blob-code blob-code-inner js-file-line">char id=211  x=73   y=67   width=13   height=22   xoffset=1    yoffset=-1   xadvance=14   page=0    chnl=0</td>
      </tr>
      <tr>
        <td id="L185" class="blob-num js-line-number" data-line-number="185"></td>
        <td id="LC185" class="blob-code blob-code-inner js-file-line">char id=212  x=73   y=93   width=13   height=22   xoffset=1    yoffset=-1   xadvance=14   page=0    chnl=0</td>
      </tr>
      <tr>
        <td id="L186" class="blob-num js-line-number" data-line-number="186"></td>
        <td id="LC186" class="blob-code blob-code-inner js-file-line">char id=213  x=54   y=489  width=13   height=21   xoffset=1    yoffset=0    xadvance=14   page=0    chnl=0</td>
      </tr>
      <tr>
        <td id="L187" class="blob-num js-line-number" data-line-number="187"></td>
        <td id="LC187" class="blob-code blob-code-inner js-file-line">char id=214  x=73   y=119  width=13   height=21   xoffset=1    yoffset=0    xadvance=14   page=0    chnl=0</td>
      </tr>
      <tr>
        <td id="L188" class="blob-num js-line-number" data-line-number="188"></td>
        <td id="LC188" class="blob-code blob-code-inner js-file-line">char id=215  x=245  y=45   width=12   height=12   xoffset=1    yoffset=6    xadvance=14   page=0    chnl=0</td>
      </tr>
      <tr>
        <td id="L189" class="blob-num js-line-number" data-line-number="189"></td>
        <td id="LC189" class="blob-code blob-code-inner js-file-line">char id=216  x=261  y=45   width=14   height=18   xoffset=0    yoffset=3    xadvance=14   page=0    chnl=0</td>
      </tr>
      <tr>
        <td id="L190" class="blob-num js-line-number" data-line-number="190"></td>
        <td id="LC190" class="blob-code blob-code-inner js-file-line">char id=217  x=73   y=144  width=12   height=22   xoffset=1    yoffset=-1   xadvance=14   page=0    chnl=0</td>
      </tr>
      <tr>
        <td id="L191" class="blob-num js-line-number" data-line-number="191"></td>
        <td id="LC191" class="blob-code blob-code-inner js-file-line">char id=218  x=73   y=170  width=12   height=22   xoffset=1    yoffset=-1   xadvance=14   page=0    chnl=0</td>
      </tr>
      <tr>
        <td id="L192" class="blob-num js-line-number" data-line-number="192"></td>
        <td id="LC192" class="blob-code blob-code-inner js-file-line">char id=219  x=73   y=196  width=12   height=22   xoffset=1    yoffset=-1   xadvance=14   page=0    chnl=0</td>
      </tr>
      <tr>
        <td id="L193" class="blob-num js-line-number" data-line-number="193"></td>
        <td id="LC193" class="blob-code blob-code-inner js-file-line">char id=220  x=73   y=222  width=12   height=21   xoffset=1    yoffset=0    xadvance=14   page=0    chnl=0</td>
      </tr>
      <tr>
        <td id="L194" class="blob-num js-line-number" data-line-number="194"></td>
        <td id="LC194" class="blob-code blob-code-inner js-file-line">char id=221  x=90   y=67   width=14   height=21   xoffset=0    yoffset=-1   xadvance=14   page=0    chnl=0</td>
      </tr>
      <tr>
        <td id="L195" class="blob-num js-line-number" data-line-number="195"></td>
        <td id="LC195" class="blob-code blob-code-inner js-file-line">char id=222  x=279  y=45   width=13   height=16   xoffset=1    yoffset=4    xadvance=14   page=0    chnl=0</td>
      </tr>
      <tr>
        <td id="L196" class="blob-num js-line-number" data-line-number="196"></td>
        <td id="LC196" class="blob-code blob-code-inner js-file-line">char id=223  x=73   y=247  width=13   height=19   xoffset=1    yoffset=2    xadvance=14   page=0    chnl=0</td>
      </tr>
      <tr>
        <td id="L197" class="blob-num js-line-number" data-line-number="197"></td>
        <td id="LC197" class="blob-code blob-code-inner js-file-line">char id=224  x=73   y=270  width=13   height=19   xoffset=1    yoffset=2    xadvance=14   page=0    chnl=0</td>
      </tr>
      <tr>
        <td id="L198" class="blob-num js-line-number" data-line-number="198"></td>
        <td id="LC198" class="blob-code blob-code-inner js-file-line">char id=225  x=73   y=293  width=13   height=19   xoffset=1    yoffset=2    xadvance=14   page=0    chnl=0</td>
      </tr>
      <tr>
        <td id="L199" class="blob-num js-line-number" data-line-number="199"></td>
        <td id="LC199" class="blob-code blob-code-inner js-file-line">char id=226  x=73   y=316  width=13   height=19   xoffset=1    yoffset=2    xadvance=14   page=0    chnl=0</td>
      </tr>
      <tr>
        <td id="L200" class="blob-num js-line-number" data-line-number="200"></td>
        <td id="LC200" class="blob-code blob-code-inner js-file-line">char id=227  x=296  y=45   width=13   height=18   xoffset=1    yoffset=3    xadvance=14   page=0    chnl=0</td>
      </tr>
      <tr>
        <td id="L201" class="blob-num js-line-number" data-line-number="201"></td>
        <td id="LC201" class="blob-code blob-code-inner js-file-line">char id=228  x=313  y=45   width=13   height=18   xoffset=1    yoffset=3    xadvance=14   page=0    chnl=0</td>
      </tr>
      <tr>
        <td id="L202" class="blob-num js-line-number" data-line-number="202"></td>
        <td id="LC202" class="blob-code blob-code-inner js-file-line">char id=229  x=73   y=339  width=13   height=20   xoffset=1    yoffset=1    xadvance=14   page=0    chnl=0</td>
      </tr>
      <tr>
        <td id="L203" class="blob-num js-line-number" data-line-number="203"></td>
        <td id="LC203" class="blob-code blob-code-inner js-file-line">char id=230  x=330  y=45   width=15   height=14   xoffset=0    yoffset=7    xadvance=14   page=0    chnl=0</td>
      </tr>
      <tr>
        <td id="L204" class="blob-num js-line-number" data-line-number="204"></td>
        <td id="LC204" class="blob-code blob-code-inner js-file-line">char id=231  x=73   y=363  width=12   height=19   xoffset=1    yoffset=7    xadvance=14   page=0    chnl=0</td>
      </tr>
      <tr>
        <td id="L205" class="blob-num js-line-number" data-line-number="205"></td>
        <td id="LC205" class="blob-code blob-code-inner js-file-line">char id=232  x=73   y=386  width=12   height=19   xoffset=1    yoffset=2    xadvance=14   page=0    chnl=0</td>
      </tr>
      <tr>
        <td id="L206" class="blob-num js-line-number" data-line-number="206"></td>
        <td id="LC206" class="blob-code blob-code-inner js-file-line">char id=233  x=73   y=409  width=12   height=19   xoffset=1    yoffset=2    xadvance=14   page=0    chnl=0</td>
      </tr>
      <tr>
        <td id="L207" class="blob-num js-line-number" data-line-number="207"></td>
        <td id="LC207" class="blob-code blob-code-inner js-file-line">char id=234  x=73   y=432  width=12   height=19   xoffset=1    yoffset=2    xadvance=14   page=0    chnl=0</td>
      </tr>
      <tr>
        <td id="L208" class="blob-num js-line-number" data-line-number="208"></td>
        <td id="LC208" class="blob-code blob-code-inner js-file-line">char id=235  x=349  y=45   width=12   height=18   xoffset=1    yoffset=3    xadvance=14   page=0    chnl=0</td>
      </tr>
      <tr>
        <td id="L209" class="blob-num js-line-number" data-line-number="209"></td>
        <td id="LC209" class="blob-code blob-code-inner js-file-line">char id=236  x=365  y=45   width=13   height=18   xoffset=1    yoffset=2    xadvance=14   page=0    chnl=0</td>
      </tr>
      <tr>
        <td id="L210" class="blob-num js-line-number" data-line-number="210"></td>
        <td id="LC210" class="blob-code blob-code-inner js-file-line">char id=237  x=382  y=45   width=13   height=18   xoffset=1    yoffset=2    xadvance=14   page=0    chnl=0</td>
      </tr>
      <tr>
        <td id="L211" class="blob-num js-line-number" data-line-number="211"></td>
        <td id="LC211" class="blob-code blob-code-inner js-file-line">char id=238  x=399  y=45   width=13   height=18   xoffset=1    yoffset=2    xadvance=14   page=0    chnl=0</td>
      </tr>
      <tr>
        <td id="L212" class="blob-num js-line-number" data-line-number="212"></td>
        <td id="LC212" class="blob-code blob-code-inner js-file-line">char id=239  x=416  y=45   width=13   height=17   xoffset=1    yoffset=3    xadvance=14   page=0    chnl=0</td>
      </tr>
      <tr>
        <td id="L213" class="blob-num js-line-number" data-line-number="213"></td>
        <td id="LC213" class="blob-code blob-code-inner js-file-line">char id=240  x=73   y=455  width=12   height=19   xoffset=1    yoffset=2    xadvance=14   page=0    chnl=0</td>
      </tr>
      <tr>
        <td id="L214" class="blob-num js-line-number" data-line-number="214"></td>
        <td id="LC214" class="blob-code blob-code-inner js-file-line">char id=241  x=433  y=45   width=11   height=17   xoffset=2    yoffset=3    xadvance=14   page=0    chnl=0</td>
      </tr>
      <tr>
        <td id="L215" class="blob-num js-line-number" data-line-number="215"></td>
        <td id="LC215" class="blob-code blob-code-inner js-file-line">char id=242  x=73   y=478  width=12   height=19   xoffset=1    yoffset=2    xadvance=14   page=0    chnl=0</td>
      </tr>
      <tr>
        <td id="L216" class="blob-num js-line-number" data-line-number="216"></td>
        <td id="LC216" class="blob-code blob-code-inner js-file-line">char id=243  x=108  y=67   width=12   height=19   xoffset=1    yoffset=2    xadvance=14   page=0    chnl=0</td>
      </tr>
      <tr>
        <td id="L217" class="blob-num js-line-number" data-line-number="217"></td>
        <td id="LC217" class="blob-code blob-code-inner js-file-line">char id=244  x=124  y=67   width=12   height=19   xoffset=1    yoffset=2    xadvance=14   page=0    chnl=0</td>
      </tr>
      <tr>
        <td id="L218" class="blob-num js-line-number" data-line-number="218"></td>
        <td id="LC218" class="blob-code blob-code-inner js-file-line">char id=245  x=448  y=45   width=12   height=18   xoffset=1    yoffset=3    xadvance=14   page=0    chnl=0</td>
      </tr>
      <tr>
        <td id="L219" class="blob-num js-line-number" data-line-number="219"></td>
        <td id="LC219" class="blob-code blob-code-inner js-file-line">char id=246  x=464  y=45   width=12   height=18   xoffset=1    yoffset=3    xadvance=14   page=0    chnl=0</td>
      </tr>
      <tr>
        <td id="L220" class="blob-num js-line-number" data-line-number="220"></td>
        <td id="LC220" class="blob-code blob-code-inner js-file-line">char id=247  x=480  y=45   width=13   height=12   xoffset=1    yoffset=6    xadvance=14   page=0    chnl=0</td>
      </tr>
      <tr>
        <td id="L221" class="blob-num js-line-number" data-line-number="221"></td>
        <td id="LC221" class="blob-code blob-code-inner js-file-line">char id=248  x=497  y=45   width=13   height=14   xoffset=1    yoffset=7    xadvance=14   page=0    chnl=0</td>
      </tr>
      <tr>
        <td id="L222" class="blob-num js-line-number" data-line-number="222"></td>
        <td id="LC222" class="blob-code blob-code-inner js-file-line">char id=249  x=140  y=67   width=11   height=19   xoffset=2    yoffset=2    xadvance=14   page=0    chnl=0</td>
      </tr>
      <tr>
        <td id="L223" class="blob-num js-line-number" data-line-number="223"></td>
        <td id="LC223" class="blob-code blob-code-inner js-file-line">char id=250  x=155  y=67   width=11   height=19   xoffset=2    yoffset=2    xadvance=14   page=0    chnl=0</td>
      </tr>
      <tr>
        <td id="L224" class="blob-num js-line-number" data-line-number="224"></td>
        <td id="LC224" class="blob-code blob-code-inner js-file-line">char id=251  x=170  y=67   width=11   height=19   xoffset=2    yoffset=2    xadvance=14   page=0    chnl=0</td>
      </tr>
      <tr>
        <td id="L225" class="blob-num js-line-number" data-line-number="225"></td>
        <td id="LC225" class="blob-code blob-code-inner js-file-line">char id=252  x=185  y=67   width=11   height=18   xoffset=2    yoffset=3    xadvance=14   page=0    chnl=0</td>
      </tr>
      <tr>
        <td id="L226" class="blob-num js-line-number" data-line-number="226"></td>
        <td id="LC226" class="blob-code blob-code-inner js-file-line">char id=253  x=90   y=92   width=14   height=23   xoffset=0    yoffset=2    xadvance=14   page=0    chnl=0</td>
      </tr>
      <tr>
        <td id="L227" class="blob-num js-line-number" data-line-number="227"></td>
        <td id="LC227" class="blob-code blob-code-inner js-file-line">char id=254  x=90   y=119  width=11   height=23   xoffset=2    yoffset=2    xadvance=14   page=0    chnl=0</td>
      </tr>
      <tr>
        <td id="L228" class="blob-num js-line-number" data-line-number="228"></td>
        <td id="LC228" class="blob-code blob-code-inner js-file-line">char id=255  x=90   y=146  width=14   height=22   xoffset=0    yoffset=3    xadvance=14   page=0    chnl=0</td>
      </tr>
      <tr>
        <td id="L229" class="blob-num js-line-number" data-line-number="229"></td>
        <td id="LC229" class="blob-code blob-code-inner js-file-line">kernings count=0</td>
      </tr>
</table>


  </div>

  </div>

  <button type="button" data-facebox="#jump-to-line" data-facebox-class="linejump" data-hotkey="l" class="d-none">Jump to Line</button>
  <div id="jump-to-line" style="display:none">
    <!-- '"` --><!-- </textarea></xmp> --></option></form><form accept-charset="UTF-8" action="" class="js-jump-to-line-form" method="get"><div style="margin:0;padding:0;display:inline"><input name="utf8" type="hidden" value="&#x2713;" /></div>
      <input class="form-control linejump-input js-jump-to-line-field" type="text" placeholder="Jump to line&hellip;" aria-label="Jump to line" autofocus>
      <button type="submit" class="btn">Go</button>
</form>  </div>

  </div>
  <div class="modal-backdrop js-touch-events"></div>
</div>

    </div>
  </div>

  </div>

      
<div class="container site-footer-container">
  <div class="site-footer " role="contentinfo">
    <ul class="site-footer-links float-right">
        <li><a href="https://github.com/contact" data-ga-click="Footer, go to contact, text:contact">Contact GitHub</a></li>
      <li><a href="https://developer.github.com" data-ga-click="Footer, go to api, text:api">API</a></li>
      <li><a href="https://training.github.com" data-ga-click="Footer, go to training, text:training">Training</a></li>
      <li><a href="https://shop.github.com" data-ga-click="Footer, go to shop, text:shop">Shop</a></li>
        <li><a href="https://github.com/blog" data-ga-click="Footer, go to blog, text:blog">Blog</a></li>
        <li><a href="https://github.com/about" data-ga-click="Footer, go to about, text:about">About</a></li>

    </ul>

    <a href="https://github.com" aria-label="Homepage" class="site-footer-mark" title="GitHub">
      <svg aria-hidden="true" class="octicon octicon-mark-github" height="24" version="1.1" viewBox="0 0 16 16" width="24"><path fill-rule="evenodd" d="M8 0C3.58 0 0 3.58 0 8c0 3.54 2.29 6.53 5.47 7.59.4.07.55-.17.55-.38 0-.19-.01-.82-.01-1.49-2.01.37-2.53-.49-2.69-.94-.09-.23-.48-.94-.82-1.13-.28-.15-.68-.52-.01-.53.63-.01 1.08.58 1.23.82.72 1.21 1.87.87 2.33.66.07-.52.28-.87.51-1.07-1.78-.2-3.64-.89-3.64-3.95 0-.87.31-1.59.82-2.15-.08-.2-.36-1.02.08-2.12 0 0 .67-.21 2.2.82.64-.18 1.32-.27 2-.27.68 0 1.36.09 2 .27 1.53-1.04 2.2-.82 2.2-.82.44 1.1.16 1.92.08 2.12.51.56.82 1.27.82 2.15 0 3.07-1.87 3.75-3.65 3.95.29.25.54.73.54 1.48 0 1.07-.01 1.93-.01 2.2 0 .21.15.46.55.38A8.013 8.013 0 0 0 16 8c0-4.42-3.58-8-8-8z"/></svg>
</a>
    <ul class="site-footer-links">
      <li>&copy; 2017 <span title="0.12274s from unicorn-451382695-t8r80">GitHub</span>, Inc.</li>
        <li><a href="https://github.com/site/terms" data-ga-click="Footer, go to terms, text:terms">Terms</a></li>
        <li><a href="https://github.com/site/privacy" data-ga-click="Footer, go to privacy, text:privacy">Privacy</a></li>
        <li><a href="https://github.com/security" data-ga-click="Footer, go to security, text:security">Security</a></li>
        <li><a href="https://status.github.com/" data-ga-click="Footer, go to status, text:status">Status</a></li>
        <li><a href="https://help.github.com" data-ga-click="Footer, go to help, text:help">Help</a></li>
    </ul>
  </div>
</div>



  <div id="ajax-error-message" class="ajax-error-message flash flash-error">
    <svg aria-hidden="true" class="octicon octicon-alert" height="16" version="1.1" viewBox="0 0 16 16" width="16"><path fill-rule="evenodd" d="M8.865 1.52c-.18-.31-.51-.5-.87-.5s-.69.19-.87.5L.275 13.5c-.18.31-.18.69 0 1 .19.31.52.5.87.5h13.7c.36 0 .69-.19.86-.5.17-.31.18-.69.01-1L8.865 1.52zM8.995 13h-2v-2h2v2zm0-3h-2V6h2v4z"/></svg>
    <button type="button" class="flash-close js-flash-close js-ajax-error-dismiss" aria-label="Dismiss error">
      <svg aria-hidden="true" class="octicon octicon-x" height="16" version="1.1" viewBox="0 0 12 16" width="12"><path fill-rule="evenodd" d="M7.48 8l3.75 3.75-1.48 1.48L6 9.48l-3.75 3.75-1.48-1.48L4.52 8 .77 4.25l1.48-1.48L6 6.52l3.75-3.75 1.48 1.48z"/></svg>
    </button>
    You can't perform that action at this time.
  </div>


    
    <script crossorigin="anonymous" integrity="sha256-LI212Ua3AejeiXp6KA86A7SdjqlXF5YNVFiQeojQcQQ=" src="https://assets-cdn.github.com/assets/frameworks-2c8db5d946b701e8de897a7a280f3a03b49d8ea95717960d5458907a88d07104.js"></script>
    
    <script async="async" crossorigin="anonymous" integrity="sha256-QxywA4//3yVHo/eSSfbtscahqZjVg8I9h5Hv9MTKWLo=" src="https://assets-cdn.github.com/assets/github-431cb0038fffdf2547a3f79249f6edb1c6a1a998d583c23d8791eff4c4ca58ba.js"></script>
    
    
    
    
  <div class="js-stale-session-flash stale-session-flash flash flash-warn flash-banner d-none">
    <svg aria-hidden="true" class="octicon octicon-alert" height="16" version="1.1" viewBox="0 0 16 16" width="16"><path fill-rule="evenodd" d="M8.865 1.52c-.18-.31-.51-.5-.87-.5s-.69.19-.87.5L.275 13.5c-.18.31-.18.69 0 1 .19.31.52.5.87.5h13.7c.36 0 .69-.19.86-.5.17-.31.18-.69.01-1L8.865 1.52zM8.995 13h-2v-2h2v2zm0-3h-2V6h2v4z"/></svg>
    <span class="signed-in-tab-flash">You signed in with another tab or window. <a href="">Reload</a> to refresh your session.</span>
    <span class="signed-out-tab-flash">You signed out in another tab or window. <a href="">Reload</a> to refresh your session.</span>
  </div>
  <div class="facebox" id="facebox" style="display:none;">
  <div class="facebox-popup">
    <div class="facebox-content" role="dialog" aria-labelledby="facebox-header" aria-describedby="facebox-description">
    </div>
    <button type="button" class="facebox-close js-facebox-close" aria-label="Close modal">
      <svg aria-hidden="true" class="octicon octicon-x" height="16" version="1.1" viewBox="0 0 12 16" width="12"><path fill-rule="evenodd" d="M7.48 8l3.75 3.75-1.48 1.48L6 9.48l-3.75 3.75-1.48-1.48L4.52 8 .77 4.25l1.48-1.48L6 6.52l3.75-3.75 1.48 1.48z"/></svg>
    </button>
  </div>
</div>


  </body>
</html>

