
{
  com.badlogic.gdx.graphics.Color: {
    white: { a: 1, b: 1, g: 1, r: 1 },
    red: { a: 1, b: 0, g: 0, r: 1 },
    black: { a: 1, b: 0, g: 0, r: 0 }
  },
  com.badlogic.gdx.scenes.scene2d.ui.Label$LabelStyle: {
    default: { font: default-font },
    large-font: { font: large-font },
    medium-font: { font: medium-font },
    small-font: { font: small-font },
    tiny-font: { font: tiny-font }
  },
  com.badlogic.gdx.scenes.scene2d.ui.TextButton$TextButtonStyle: {
    default: { down: default-round-down, up: default-round, font: default-font, fontColor: white },
    setupgame: { down: default-rect-down, up: default-rect, over: default-rect, checked: default-rect, font: default-font, fontColor: white, downFontColor: white, checkedFontColor: white },
    actionbar: { down: default-rect-down, up: default-rect, over: default-rect, checked: default-rect-down, font: small-font, fontColor: white, downFontColor: white, checkedFontColor: white }
  },
  com.badlogic.gdx.scenes.scene2d.ui.ProgressBar$ProgressBarStyle: {
    default-horizontal: { background: default-slider, knob: default-slider-knob },
    default-vertical: { background: default-slider, knob: default-round-large }
  }
}